abbassare la porta nel sgabuzzino 
imposta termosifone 
dimmi lo stato luci 
aprimi la porta in bagno 
abbassa porta del cucina 
abbassa porta in sala 
metti clima fino a undici per piacere 
abbassare la porta 
abbassa questa porta 
diminuire clima fino a venti 
metti clima nella salotto a vent uno 
chiudi la porta 
abbassare porta nel camera da letto 
abbassa porta di matrimoniale 
abbassare la porta 
apri questa porta nella camera 
per piacere chiudere la porta 
alza la temperatura in matrimoniale 
chiudi la porta 
aprimi porta di camera grande 
per piacere chiudi la porta 
per piacere chiusura la porta 
metti clima a sedici nella cucina 
abbassare porta 
chiudi porta dello camera da letto grande 
alza clima in corridoio fino a venti 
per piacere chiudi porta 
per piacere chiusura questa porta di sala 
diminuire la temperatura a vent otto 
metti temperatura nello bagno a venti 
aprire porta del salotto 
diminuire clima in matrimoniale a tredici 
aprire la porta nel gabinetto 
per piacere abbassa porta 
diminuire termosifoni 
abbassare la porta in soggiorno 
abbassare questa porta di camera 
per piacere chiudimi questa porta nella camera 
per piacere spalanca la porta in camera 
chiudi la porta 
cambia la temperatura a venti due 
per piacere chiusura porta 
per piacere chiudere porta in cucina 
socchiudere porta nella salotto 
accendimi dello dvd 
accendimi volume dello radio 
aprire la porta nel sala 
sollevare la porta 
impostazione serrande in corridoio 
aprire la porta 
per piacere chiudere la porta 
chiusura la porta 
per piacere sollevare la porta 
per piacere apertura porta 
dimmi lo stato luce nel salotto 
chiudi la porta 
chiudi porta nella soggiorno 
aumenta termosifoni nel corridoio fino a venti 
chiudere questa porta di cucina 
aprire la porta in cucina 
sollevare la porta 
abbassare la porta di gabinetto 
per piacere chiudi porta del gabinetto 
aprimi porta della sgabuzzino 
per favore sollevare la porta 
chiudere la porta 
spegni pc nella soggiorno 
per favore chiudi porta 
abbassare questa porta nello gabinetto 
alza clima in soggiorno fino a vent uno 
per piacere chiudimi la porta 
chiudere porta di sala 
sollevare porta 
sollevare porta dello sala 
metti clima nel camera per favore 
per piacere sollevare porta 
per piacere chiusura la porta 
aprire porta di camera 
per piacere sollevare la porta 
abbassare porta di sala 
abbassare porta di gabinetto 
abbassare questa porta 
per piacere abbassa porta 
abbassare la porta 
metti clima in sala per favore 
aprimi porta di sala 
abbassare porta in cucina 
metti la temperatura a dodici nella camera piccola 
apri questa porta di gabinetto 
metti clima fino a venti 
diminuire riscaldamento nella bagno fino a undici 
alza clima nella soggiorno a vent uno 
per piacere chiusura porta 
apertura la porta di bagno 
chiudi la porta in salotto 
diminuire la temperatura nella matrimoniale fino a vent uno 
imposta la temperatura a dieci 
apri porta della corridoio 
metti la temperatura in matrimoniale a diciassette 
aprire porta nella cucina 
per favore chiusura questa porta 
per favore sollevare la porta 
aprire questa porta di camera 
per favore abbassa porta 
aprire la porta 
apri porta di sala 
chiudere porta 
aprire porta 
aprimi porta in corridoio 
aprimi la porta in bagno 
aumenta termosifoni 
diminuire clima nello sala a vent uno 
abbassare la porta di sala 
per favore aprimi porta 
metti clima nello corridoio a dieci 
aprire porta dello camera 
per favore sollevare la porta 
apri la porta nella sala 
diminuire clima nella corridoio fino a venti 
cambia termosifoni nel sala 
metti clima nella sala 
apri la porta dello ripostiglio 
diminuire clima a venti due in corridoio 
chiudi tapparelle nel gabinetto 
apri la porta di salotto 
apri la porta del cucina 
aprire la porta dello ripostiglio 
metti clima nello gabinetto per favore 
diminuire clima nella camera fino a quindici 
apri questa porta in cucina 
sollevare la porta 
per piacere spalanca porta 
metti clima nello sala per favore 
chiudi la porta dello matrimoniale 
aumenta clima fino a venti sette 
chiudi la porta 
chiudi la porta della corridoio 
aumentare di lettore dvd 
apri questa porta nello ripostiglio 
apri porta in camera 
per favore sollevare porta di cucina 
alza clima in cucina 
metti clima a diciassette 
aprire porta 
per favore chiudi la porta in matrimoniale 
per piacere sollevare porta 
diminuire clima nel camera a tredici 
per favore chiudi porta 
apri porta 
aprimi questa porta dello camera 
aumenta clima in corridoio fino a vent uno 
aprire la porta 
apertura la porta di gabinetto 
per favore aprire la porta 
aprimi la porta 
per piacere abbassa porta 
metti clima nel camera a venti 
metti clima nel cucina per piacere 
chiudi la porta 
aprire la porta 
chiudimi la porta della corridoio 
chiudere porta in corridoio 
chiudi la porta in salotto 
chiudere la porta nel matrimoniale 
chiudimi serrande 
apertura questa porta in cucina 
accendimi dello radio 
metti clima in camera per favore 
alza clima nello ripostiglio a venti 
chiudere la porta 
alza clima nello camera a vent uno per favore 
alza riscaldamento nella sala a vent uno 
chiudi la porta del soggiorno 
chiudi la porta 
chiudi la porta di sgabuzzino 
chiudi la porta della disimpegno 
metti clima nello soggiorno 
diminuire la temperatura in corridoio fino a venti 
chiudi la porta 
chiudi la porta 
chiudi porta 
chiusura la porta 
metti clima nella corridoio 
metti clima per favore 
per favore apri porta in cucina 
aprire porta 
metti la temperatura nella salotto a venti due 
chiudere porta di camera da letto 
apertura la porta di bagno 
per piacere chiudi la porta di camera da letto 
chiudere porta 
abbassare la porta di sala da pranzo 
abbassare porta 
diminuire la temperatura nella soggiorno 
per favore chiudi la porta nella camera matrimoniale 
chiusura questa porta della salotto 
chiusura questa porta di cucina 
metti termosifone nella corridoio a diciannove per favore 
metti clima fino a vent uno nel camera grande 
chiusura porta 
stato la finestra della cucina 
metti clima nello sala 
metti clima nel camera grande a vent uno 
metti la temperatura fino a venti nella camera piccola 
metti la temperatura a venti in matrimoniale 
chiudere la porta di sala 
per piacere aprimi porta 
per favore chiudere porta 
metti clima a sedici 
chiudere la porta 
socchiudere porta 
chiusura la porta di bagno 
chiudi porta nella sala 
chiusura la porta 
per favore sollevare la porta 
apri porta di sala 
per piacere chiusura porta in cucina 
chiudi porta di sgabuzzino 
socchiudere questa porta in cucina 
per piacere apri la porta 
qual e' lo stato scuri di sala 
per favore spalanca questa porta di gabinetto 
metti termosifone nella corridoio a dieci per piacere 
per piacere aprire porta dello matrimoniale 
diminuire clima nel camera 
chiudere la porta 
aprire porta di corridoio 
chiudere la porta del corridoio 
chiudere questa porta 
chiudere serrande 
chiusura questa porta di sala 
apertura questa porta di sala 
chiudere porta in corridoio 
alza la temperatura nel cucina a sedici 
aprire la porta nello sgabuzzino 
per favore socchiudere porta della matrimoniale 
chiusura la porta nello sala 
diminuire termosifone in camera grande 
chiudimi questa porta 
aumenta termosifone nello corridoio fino a venti 
abbassa questa porta in matrimoniale 
metti clima nel sala 
chiudimi porta 
chiusura la porta 
chiudi porta nella soggiorno 
per favore socchiudere la porta di salotto 
metti clima nello sala 
metti clima nella soggiorno fino a sedici 
sollevare porta 
socchiudere porta di bagno 
impostare clima per favore 
aprire porta nella sala 
chiudimi porta di sala 
alza termosifone 
aprimi porta dello ripostiglio 
chiudere la porta 
chiudimi la porta dello sala 
chiudimi porta nella sala 
socchiudere la porta nel camera 
sollevare porta 
per favore chiusura questa porta 
per favore abbassa la porta 
socchiudere porta nello sala da pranzo 
aprimi porta in salotto 
per favore sollevare la porta 
aumenta clima nello corridoio per favore 
socchiudere la porta in soggiorno 
sollevare porta 
socchiudere la porta di soggiorno 
chiudi la porta 
chiudi la porta del sala 
metti clima nel bagno fino a vent uno 
per favore sollevare la porta di bagno 
per favore aprimi porta 
sollevare la porta 
per piacere abbassa questa porta 
sollevare la porta in cucina 
socchiudere la porta 
per favore spalanca la porta della gabinetto 
sollevare la porta 
chiudere la porta di sala 
chiudere porta nella salotto 
chiudi porta del camera 
chiudere la porta dello camera 
per piacere chiusura porta in gabinetto 
chiusura la porta in camera 
chiudere la porta 
socchiudere porta in sala da pranzo 
metti termosifoni nel camera 
per favore chiusura la porta di gabinetto 
per favore chiudere porta 
per favore chiudere la porta 
alza clima nel soggiorno fino a venti 
per piacere chiudi porta della sala 
chiudere questa porta di cucina 
apertura imposte del matrimoniale 
socchiudere la porta 
alza termosifoni fino a diciannove 
diminuire termosifoni nel camera a venti 
metti clima nel soggiorno 
aumenta clima a diciannove 
aumenta temperatura nella bagno per favore 
spalanca questa porta nella salotto 
sollevare questa porta 
metti temperatura fino a venti 
alza clima nel soggiorno a dieci 
socchiudere questa porta 
chiudere questa porta della sala 
chiudere porta 
per favore aprire porta 
chiudi scuri dello bagno 
diminuire termosifoni a vent otto 
per piacere chiudimi la porta nel sala 
chiudi la porta dello camera grande 
alza temperatura per piacere 
chiudere porta nello bagno 
spalanca porta della camera 
alza dello lettore dvd 
spalanca la porta del camera 
chiudi la porta 
chiudi porta nella corridoio 
per favore chiudimi la porta 
chiudi la porta 
metti clima fino a venti cinque nello camera 
aprire porta del camera da letto 
per favore chiudi la porta 
chiudere porta della salotto 
chiudi questa porta 
chiudimi la porta 
per favore apri questa porta in cucina 
diminuire termosifoni per favore 
abbassare questa porta nello camera 
metti clima nello soggiorno 
diminuire termosifoni in corridoio fino a venti 
metti termosifoni nella sala a venti 
chiudere questa porta 
apri porta in camera 
aprire imposte in corridoio 
per favore chiusura la porta 
abbassa del dvd 
socchiudere questa porta 
socchiudere la porta dello sala 
chiudere la porta 
chiudere porta di sala 
chiudi scuri del camera grande 
chiudi la porta di cucina 
metti clima a dieci 
chiudi questa porta 
diminuire termosifoni a venti 
alza termosifoni a venti sei 
diminuire temperatura nello gabinetto a vent uno 
chiudi la porta 
diminuire clima nel gabinetto fino a venti 
chiudimi serrande 
chiudi questa porta 
per piacere chiusura porta 
alza volume del radio 
abbassare questa porta in corridoio 
aprire la porta di salotto 
chiudi porta della camera 
chiudi la porta nello gabinetto 
metti la temperatura nel soggiorno 
per favore apertura questa porta di camera 
chiudere questa porta di camera da letto piccola 
metti clima nella matrimoniale a venti sei 
