0	1	abbassa	VER:pres	abbassare	Cause_to_close	B-LU
0	2	il	DET:def	il	O	O
0	3	sms	NOM	sms	Cause_to_close	B-Device
0	4	qui	ADV	qui	Cause_to_close	B-Place

1	1	in	PRE	in	O	O
1	2	abbassa	VER:pres	abbassare	O	O
1	3	termosifone	NOM	termosifone	Decrease_value_on_a_range	B-Device

2	1	abbassa	VER:pres	abbassare	Cause_to_close	B-LU
2	2	due	ADJ	due	O	O

3	1	abbassa	VER:pres	abbassare	Decrease_value_on_a_range	B-LU
3	2	il	DET:def	il	O	O
3	3	volume	NOM	volume	Decrease_value_on_a_range	B-Property
3	4	della	PRE:det	del	O	O
3	5	televisione	NOM	televisione	Decrease_value_on_a_range	B-Device

4	1	imposta	NOM	imposta	O	O
4	2	numero	NOM	numero	O	O
4	3	specchio	NOM	specchio	Check_status	I-Device

5	1	abbassa	VER:pres	abbassare	Decrease_value_on_a_range	B-LU
5	2	abatjour	NOM	abatjour	Decrease_value_on_a_range	B-Device

6	1	abbassa	VER:pres	abbassare	Decrease_value_on_a_range	B-LU
6	2	la	DET:def	il	O	O
6	3	luce	NOM	luce	Decrease_value_on_a_range	B-Device
6	4	della	PRE:det	del	O	O
6	5	cucina	NOM	cucina	Decrease_value_on_a_range	B-Place
6	6	del	PRE:det	del	O	O

7	1	abbassa	VER:pres	abbassare	Decrease_value_on_a_range	B-LU
7	2	la	DET:def	il	O	O
7	3	luce	NOM	luce	Decrease_value_on_a_range	B-Device
7	4	del	PRE:det	del	O	O
7	5	bagno	NOM	bagno	Decrease_value_on_a_range	B-Place

8	1	abbassare	VER:infi	abbassare	Contacting	B-LU
8	2	sorella	ADJ	sorella	Contacting	B-Addressee

9	1	di	PRE	di	O	O
9	2	aprire	VER:infi	aprire	O	O
9	3	abbassa	VER:pres	abbassare	Cause_to_close	B-LU
9	4	la	DET:def	il	O	O
9	5	tapparella	NOM	tapparella	Cause_to_close	B-Device

10	1	imposta	NOM	imposta	O	O
10	2	temperatura	NOM	temperatura	Check_status	B-Property

11	1	chiudi	VER:pres	chiudere	Cause_to_close	B-LU
11	2	la	DET:def	il	O	O
11	3	abbassa	VER:pres	abbassare	Cause_to_close	B-LU
11	4	la	DET:def	il	O	O
11	5	temperatura	NOM	temperatura	Cause_to_close	B-Property
11	6	del	PRE:det	del	O	O
11	7	bagno	NOM	bagno	Cause_to_close	B-Place

12	1	abbassa	VER:pres	abbassare	Decrease_value_on_a_range	B-LU
12	2	il	DET:def	il	O	O
12	3	volume	NOM	volume	Decrease_value_on_a_range	B-Property
12	4	della	PRE:det	del	O	O
12	5	radio	NOM	radio	Decrease_value_on_a_range	I-Device

13	1	abbassa	VER:pres	abbassare	Decrease_value_on_a_range	B-LU
13	2	della	PRE:det	del	O	O
13	3	tv	NOM	tv	Decrease_value_on_a_range	B-Device

14	1	abbassa	VER:pres	abbassare	Cause_to_close	B-LU
14	2	serrande	NOM	serranda	Cause_to_close	B-Device

15	1	apri	VER:pres	aprire	Cause_to_open	B-LU
15	2	disbrigo	NOM	disbrigo	O	O
15	3	verifica	NOM	verifica	Cause_to_open	I-Device

16	1	accendi	VER:pres	accendere	Put_into_operation	B-LU
16	2	il	DET:def	il	O	O
16	3	lettore	NOM	lettore	Put_into_operation	B-Device
16	4	mp3	NOM	mp3	Put_into_operation	I-Device

17	1	accenderesti	VER:cond	accendere	Put_into_operation	B-LU
17	2	la	DET:def	il	O	O
17	3	luce	NOM	luce	Put_into_operation	B-Device
17	4	per	PRE	per	O	O
17	5	favore	NOM	favore	O	O
17	6	mia	PRO:poss	mio	O	O

18	1	accendi	VER:pres	accendere	Put_into_operation	B-LU
18	2	il	DET:def	il	O	O
18	3	phone	NOM	phone	Put_into_operation	B-Device

19	1	accendi	VER:pres	accendere	Put_into_operation	B-LU
19	2	il	DET:def	il	O	O
19	3	volume	NOM	volume	Put_into_operation	B-Property

20	1	vivavoce	VER:impe	vivavoce	Check_status	B-LU
20	2	condizionatore	NOM	condizionatore	Check_status	B-Device

21	1	accendi	VER:pres	accendere	Contacting	B-LU
21	2	fratello	NOM	fratello	Contacting	B-Addressee

22	1	accendi	VER:pres	accendere	Put_into_operation	B-LU
22	2	cellulare	ADJ	cellulare	Put_into_operation	B-Device
22	3	le	DET:def	il	Put_into_operation	I-Device
22	4	luci	NOM	luce	Put_into_operation	I-Device

23	1	accendi	VER:pres	accendere	Put_into_operation	B-LU
23	2	il	DET:def	il	O	O
23	3	controllo	NOM	controllo	Put_into_operation	B-Device

24	1	accendi	VER:pres	accendere	Put_into_operation	B-LU
24	2	il	DET:def	il	O	O
24	3	computer	NOM	computer	Put_into_operation	B-Device
24	4	decoder	VER:infi	decoder	Put_into_operation	I-Device
24	5	tenda	NOM	tenda	Put_into_operation	I-Device

25	1	accendi	VER:pres	accendere	Put_into_operation	B-LU
25	2	il	DET:def	il	O	O
25	3	controllo	NOM	controllo	Put_into_operation	B-Device
25	4	radiouno	ADJ	radiouno	Put_into_operation	I-Device

26	1	accendi	VER:pres	accendere	Put_into_operation	B-LU
26	2	la	DET:def	il	O	O
26	3	condizionatore	NOM	condizionatore	Put_into_operation	B-Device

27	1	accendi	VER:pres	accendere	Put_into_operation	B-LU
27	2	condizionatore	NOM	condizionatore	Put_into_operation	B-Device
27	3	camera	NOM	camera	Put_into_operation	B-Place

28	1	accendi	VER:pres	accendere	Put_into_operation	B-LU
28	2	il	DET:def	il	O	O
28	3	decoder	NOM	decoder	Put_into_operation	B-Device

29	1	accendi	VER:pres	accendere	Put_into_operation	B-LU
29	2	la	DET:def	il	O	O
29	3	tapparella	NOM	tapparella	Put_into_operation	B-Device

30	1	accendi	VER:pres	accendere	Put_into_operation	B-LU
30	2	il	DET:def	il	O	O
30	3	lettore	NOM	lettore	Put_into_operation	B-Device
30	4	ingresso	NOM	ingresso	Put_into_operation	I-Device

31	1	accendi	VER:pres	accendere	Put_into_operation	B-LU
31	2	il	DET:def	il	O	O
31	3	lettore	NOM	lettore	Put_into_operation	B-Device
31	4	dvd	ADJ	dvd	Put_into_operation	I-Device

32	1	accendi	VER:pres	accendere	Put_into_operation	B-LU
32	2	monitor	NOM	monitor	Put_into_operation	B-Device

33	1	la	DET:def	il	O	O
33	2	luce	NOM	luce	Put_into_operation	B-Device
33	3	della	PRE:det	del	O	O
33	4	cucina	NOM	cucina	Put_into_operation	B-Place

34	1	termosifone	NOM	termosifone	O	O

35	1	accenderesti	VER:cond	accendere	Put_into_operation	B-LU
35	2	comando	NOM	comando	O	O

36	1	accendi	VER:pres	accendere	Put_into_operation	B-LU
36	2	ricevitore	ADJ	ricevitore	Put_into_operation	B-Device
36	3	satellite	ADJ	satellite	Put_into_operation	I-Device
36	4	piantana	NOM	piantana	Put_into_operation	I-Device

37	1	accendi	VER:pres	accendere	Put_into_operation	B-LU
37	2	il	DET:def	il	O	O
37	3	riscaldamento	NOM	riscaldamento	Put_into_operation	B-Device
37	4	calorifero	NOM	calorifero	Put_into_operation	I-Device

38	1	accendi	VER:pres	accendere	Put_into_operation	B-LU
38	2	il	DET:def	il	O	O
38	3	riscaldamento	NOM	riscaldamento	Put_into_operation	B-Device
38	4	solo	ADV	solo	O	O
38	5	qui	ADV	qui	O	O

39	1	accendi	VER:pres	accendere	Put_into_operation	B-LU
39	2	il	DET:def	il	O	O
39	3	telefono	NOM	telefono	Put_into_operation	B-Device

40	1	alza	VER:pres	alzare	Increase_value_on_range	B-LU
40	2	il	DET:def	il	O	O
40	3	termosifone	NOM	termosifone	Increase_value_on_range	B-Device

41	1	accendi	VER:pres	accendere	Put_into_operation	B-LU
41	2	il	DET:def	il	O	O
41	3	termostato	NOM	termostato	Put_into_operation	B-Device
41	4	che	ADJ	che	Put_into_operation	I-Device

42	1	accendi	VER:pres	accendere	Put_into_operation	B-LU
42	2	il	DET:def	il	O	O
42	3	ventilatore	NOM	ventilatore	Put_into_operation	B-Device

43	1	accendi	VER:pres	accendere	Put_into_operation	B-LU
43	2	il	DET:def	il	O	O
43	3	lettore	NOM	lettore	Put_into_operation	B-Device
43	4	numero	NOM	numero	O	O
43	5	accedi	VER:pres	accedere	O	O

44	1	accendi	VER:pres	accendere	Put_into_operation	B-LU
44	2	il	DET:def	il	O	O
44	3	lettore	NOM	lettore	Put_into_operation	B-Device
44	4	di	PRE	di	Put_into_operation	I-Device

45	1	accendi	VER:pres	accendere	Put_into_operation	B-LU
45	2	il	DET:def	il	O	O
45	3	del	PRE:det	del	O	O
45	4	soggiorno	NOM	soggiorno	Put_into_operation	B-Place

46	1	accendi	VER:pres	accendere	Put_into_operation	B-LU
46	2	la	DET:def	il	O	O
46	3	dall	NOM	dall	O	O
46	4	′	PON	′	O	O
46	5	esterno	ADJ	esterno	Put_into_operation	I-Device

47	1	accendi	VER:pres	accendere	Put_into_operation	B-LU
47	2	la	DET:def	il	O	O
47	3	lampada	NOM	lampada	Put_into_operation	B-Device

48	1	accendi	VER:pres	accendere	Put_into_operation	B-LU
48	2	la	DET:def	il	O	O
48	3	luce	NOM	luce	Put_into_operation	B-Device

49	1	accendi	VER:pres	accendere	Put_into_operation	B-LU
49	2	la	DET:def	il	O	O
49	3	luce	NOM	luce	Put_into_operation	B-Device
49	4	della	PRE:det	del	O	O
49	5	cucina	NOM	cucina	Put_into_operation	B-Place

50	1	il	DET:def	il	O	O
50	2	sms	NOM	sms	Contacting	B-Device
50	3	lavandino	NOM	lavandino	Contacting	I-Device

51	1	accendi	VER:pres	accendere	Put_into_operation	B-LU
51	2	la	DET:def	il	O	O
51	3	luce	NOM	luce	Put_into_operation	B-Device
51	4	del	PRE:det	del	O	O
51	5	bagno	NOM	bagno	Put_into_operation	B-Place

52	1	accendi	VER:pres	accendere	Put_into_operation	B-LU
52	2	la	DET:def	il	O	O
52	3	luce	NOM	luce	Put_into_operation	B-Device
52	4	della	PRE:det	del	O	O
52	5	camera	NOM	camera	Put_into_operation	B-Place

53	1	accendi	VER:pres	accendere	Put_into_operation	B-LU
53	2	la	DET:def	il	O	O
53	3	luce	NOM	luce	Put_into_operation	B-Device
53	4	della	PRE:det	del	O	O
53	5	cucina	NOM	cucina	Put_into_operation	B-Place

54	1	imposta	NOM	imposta	O	O
54	2	la	DET:def	il	O	O
54	3	luce	NOM	luce	Set_value_on_a_scale	B-Device
54	4	in	PRE	in	O	O
54	5	salotto	NOM	salotto	Set_value_on_a_scale	B-Place

55	1	accendi	VER:pres	accendere	Put_into_operation	B-LU
55	2	la	DET:def	il	O	O
55	3	luce	NOM	luce	Put_into_operation	B-Device
55	4	suona	VER:pres	suonare	O	O

56	1	accendi	VER:pres	accendere	Put_into_operation	B-LU
56	2	la	DET:def	il	O	O
56	3	luce	ADJ	luce	Put_into_operation	B-Device
56	4	ingresso	NOM	ingresso	Put_into_operation	I-Device

57	1	accendi	VER:pres	accendere	Put_into_operation	B-LU
57	2	la	DET:def	il	O	O
57	3	luce	ADJ	luce	Put_into_operation	B-Device
57	4	citofoni	NOM	citofono	Put_into_operation	I-Device

58	1	accendi	VER:pres	accendere	Put_into_operation	B-LU
58	2	le	DET:def	il	O	O
58	3	luci	NOM	luce	Put_into_operation	B-Device
58	4	principale	ADJ	principale	Put_into_operation	I-Device
58	5	favore	NOM	favore	O	O
58	6	togli	VER:pres	togliere	Put_into_operation	B-LU
58	7	la	DET:def	il	O	O

59	1	accendi	VER:pres	accendere	Put_into_operation	B-LU
59	2	la	DET:def	il	O	O
59	3	musica	ADJ	musico	O	O
59	4	modifica	NOM	modifica	O	O

60	1	accendi	VER:pres	accendere	Put_into_operation	B-LU
60	2	la	DET:def	il	O	O
60	3	ventola	NOM	ventola	Put_into_operation	B-Device

61	1	accendi	VER:pres	accendere	Put_into_operation	B-LU
61	2	le	DET:def	il	O	O
61	3	luci	NOM	luce	Put_into_operation	I-Device
61	4	lampadina	NOM	lampadina	Put_into_operation	I-Device

62	1	accendi	VER:pres	accendere	Put_into_operation	B-LU
62	2	l	VER:impe	l	O	O
62	3	′	PON	′	O	O
62	4	aria	NOM	aria	Put_into_operation	B-Device
62	5	condizionata	ADJ	condizionato	Put_into_operation	I-Device
62	6	in	PRE	in	O	O
62	7	camera	NOM	camera	Put_into_operation	B-Place
62	8	da	PRE	da	Put_into_operation	I-Place
62	9	letto	NOM	letto	Put_into_operation	I-Place

63	1	accendi	VER:pres	accendere	Put_into_operation	B-LU
63	2	l	VER:impe	l	O	O
63	3	′	PON	′	O	O
63	4	asciugacapelli	NOM	asciugacapelli	Put_into_operation	B-Device

64	1	accendi	VER:pres	accendere	Put_into_operation	B-LU
64	2	l	VER:impe	l	O	O
64	3	′	PON	′	O	O
64	4	aspiratore	NOM	aspiratore	O	O
64	5	del	PRE:det	del	O	O
64	6	bagno	NOM	bagno	Put_into_operation	B-Place

65	1	accendi	VER:pres	accendere	Contacting	B-LU
65	2	la	DET:def	il	O	O
65	3	squillare	VER:infi	squillare	O	O

66	1	tv	NOM	tv	Decrease_value_on_a_range	B-Device
66	2	e	CON	e	O	O
66	3	abbassa	VER:impe	abbassare	Decrease_value_on_a_range	B-LU
66	4	la	DET:def	il	O	O
66	5	telecamera	NOM	telecamera	Decrease_value_on_a_range	B-Device

67	1	accendi	VER:pres	accendere	Put_into_operation	B-LU
67	2	la	DET:def	il	O	O
67	3	televisione	NOM	televisione	Put_into_operation	B-Device

68	1	accendi	VER:pres	accendere	Put_into_operation	B-LU
68	2	luce	ADJ	luce	Put_into_operation	B-Device
68	3	fammi	VER:impe	fare	O	O
68	4	vedere	VER:infi	vedere	Put_into_operation	B-LU
68	5	la	DET:def	il	O	O
68	6	porta	ADJ	porta|porto	Put_into_operation	B-Device
68	7	della	PRE:det	del	Put_into_operation	I-Device
68	8	espelli	VER:impe	espellere	Put_into_operation	I-Device

69	1	accendi	VER:pres	accendere	Put_into_operation	B-LU
69	2	la	DET:def	il	O	O
69	3	lampada	NOM	lampada	Put_into_operation	B-Device
69	4	metti	VER:pres	mettere	Put_into_operation	B-LU
69	5	su	PRE	su	O	O
69	6	italiauno	NOM	italiauno	Put_into_operation	B-Value

70	1	accendi	VER:pres	accendere	Put_into_operation	B-LU
70	2	la	DET:def	il	O	O
70	3	tv	NOM	tv	Put_into_operation	B-Device
70	4	spengi	VER:pres	spengere	O	O
70	5	camera	NOM	camera	Put_into_operation	B-Place

71	1	accendi	VER:pres	accendere	Put_into_operation	B-LU
71	2	la	DET:def	il	O	O
71	3	ventola	NOM	ventola	Put_into_operation	B-Device
71	4	rispondi	VER:pres	rispondere	Put_into_operation	I-Place
71	5	al	PRE:det	al	O	O

72	1	accendi	VER:pres	accendere	Put_into_operation	B-LU
72	2	la	DET:def	il	O	O
72	3	ventola	NOM	ventola	Put_into_operation	B-Device

73	1	accendi	VER:pres	accendere	Put_into_operation	B-LU
73	2	la	DET:def	il	O	O
73	3	ventola	NOM	ventola	Put_into_operation	B-Device
73	4	in	PRE	in	O	O
73	5	sala	NOM	sala	Put_into_operation	B-Place

74	1	della	PRE:det	del	O	O
74	2	camera	NOM	camera	Set_value_on_a_range	B-Place
74	3	da	PRE	da	Set_value_on_a_range	I-Place
74	4	letto	NOM	letto	Set_value_on_a_range	I-Place

75	1	accese	VER:pper	accendere	Put_into_operation	B-LU
75	2	al	PRE:det	al	Put_into_operation	I-Device
75	3	letto	NOM	letto	Put_into_operation	I-Device

76	1	accendi	VER:pres	accendere	Put_into_operation	B-LU
76	2	le	DET:def	il	O	O
76	3	luci	NOM	luce	Put_into_operation	B-Device
76	4	vicino	ADJ	vicino	Put_into_operation	I-Device
76	5	al	PRE:det	al	Put_into_operation	I-Device
76	6	letto	NOM	letto	Put_into_operation	I-Device

77	1	accendi	VER:pres	accendere	Set_value_on_a_range	B-LU
77	2	il	DET:def	il	O	O
77	3	lettore	NOM	lettore	Set_value_on_a_range	B-Device
77	4	minima	ADJ	minimo	O	O

78	1	alza	VER:pres	alzare	Increase_value_on_range	B-LU
78	2	il	DET:def	il	O	O
78	3	riscaldamento	NOM	riscaldamento	Increase_value_on_range	B-Device

79	1	accendi	VER:pres	accendere	Put_into_operation	B-LU
79	2	stanza	NOM	stanza	Put_into_operation	B-Place

80	1	accendi	VER:pres	accendere	Put_into_operation	B-LU
80	2	la	DET:def	il	O	O
80	3	tv	NOM	tv	Put_into_operation	B-Device
80	4	e	CON	e	O	O

81	1	accendi	VER:pres	accendere	Put_into_operation	B-LU
81	2	il	DET:def	il	O	O
81	3	cellulare	ADJ	cellulare	Put_into_operation	B-Device

82	1	accese	ADJ	acceso	O	O
82	2	soggiorno	NOM	soggiorno	Check_status	B-Place

83	1	accendi	VER:pres	accendere	Put_into_operation	B-LU
83	2	salotto	NOM	salotto	Put_into_operation	B-Place

84	1	mi	PRO:pers	mi	O	O
84	2	accenderesti	VER:cond	accendere	Put_into_operation	B-LU
84	3	phon	NOM	phon	Put_into_operation	B-Device

85	1	accendi	VER:pres	accendere	Put_into_operation	B-LU
85	2	ventilazione	NOM	ventilazione	Put_into_operation	B-Device

86	1	accendi	VER:pres	accendere	Put_into_operation	B-LU
86	2	la	DET:def	il	O	O
86	3	tv	NOM	tv	Put_into_operation	B-Device

87	1	cassetta	NOM	cassetta	Put_into_operation	B-LU
87	2	dal	PRE:det	dal	O	O
87	3	cellulare	ADJ	cellulare	Put_into_operation	B-Device
87	4	del	PRE:det	del	O	O
87	5	bagno	NOM	bagno	Put_into_operation	B-Place

88	1	potresti	VER:cond	potere	O	O
88	2	alzare	VER:infi	alzare	Cause_to_open	B-LU
88	3	dei	PRE:det	del	O	O

89	1	alza	VER:pres	alzare	Increase_value_on_range	B-LU
89	2	il	DET:def	il	O	O
89	3	volume	NOM	volume	Increase_value_on_range	B-Property

90	1	alza	VER:pres	alzare	Increase_value_on_range	B-LU
90	2	il	DET:def	il	O	O
90	3	volume	NOM	volume	Increase_value_on_range	B-Property
90	4	della	PRE:det	del	O	O
90	5	radio	NOM	radio	Increase_value_on_range	I-Device

91	1	attiva	ADJ	attivo	Put_into_operation	B-LU
91	2	tavolo	NOM	tavolo	O	O
91	3	la	DET:def	il	O	O
91	4	televisione	NOM	televisione	Put_into_operation	B-Device

92	1	alza	VER:pres	alzare	Cause_to_open	B-LU
92	2	le	DET:def	il	O	O
92	3	su	ADV	su	Cause_to_open	I-Device
92	4	in	PRE	in	O	O
92	5	soggiorno	NOM	soggiorno	Cause_to_open	B-Place

93	1	alza	VER:pres	alzare	Cause_to_open	B-LU
93	2	le	DET:def	il	O	O
93	3	persiane	NOM	persiana|persiano	Cause_to_open	B-Device

94	1	in	PRE	in	O	O
94	2	allo	PRE:det	al	Check_status	I-Device
94	3	specchio	NOM	specchio	Check_status	I-Device

95	1	per	PRE	per	O	O
95	2	favore	NOM	favore	O	O
95	3	alla	PRE:det	al	O	O
95	4	finestra	NOM	finestra	Cause_to_open	B-Device
95	5	letto	ADJ	letto	Cause_to_open	I-Device

96	1	alza	VER:pres	alzare	Increase_value_on_range	B-LU
96	2	la	DET:def	il	O	O
96	3	temperatura	NOM	temperatura	Increase_value_on_range	B-Property
96	4	di	PRE	di	Increase_value_on_range	B-Value
96	5	due	ADJ	due	O	O

97	1	alza	VER:pres	alzare	O	O
97	2	vedere	VER:infi	vedere	Cause_to_open	B-LU
97	3	in	PRE	in	O	O
97	4	soggiorno	NOM	soggiorno	Cause_to_open	B-Place

98	1	alza	VER:pres	alzare	Increase_value_on_range	B-LU
98	2	la	DET:def	il	O	O
98	3	temperatura	NOM	temperatura	Increase_value_on_range	B-Property
98	4	dei	PRE:det	del	O	O
98	5	bagni	NOM	bagno	Increase_value_on_range	B-Place
98	6	della	PRE:det	del	O	O
98	7	televisione	NOM	televisione	Increase_value_on_range	B-Device

99	1	alza	VER:pres	alzare	Increase_value_on_range	B-LU
99	2	la	DET:def	il	O	O
99	3	temperatura	NOM	temperatura	Increase_value_on_range	B-Property
99	4	di	PRE	di	O	O
99	5	veranda	NOM	veranda	Increase_value_on_range	I-Device

100	1	alza	VER:pres	alzare	Cause_to_open	B-LU
100	2	temperatura	NOM	temperatura	Cause_to_open	B-Property
100	3	ore	NOM	ora	O	O

101	1	alza	VER:pres	alzare	Cause_to_open	B-LU
101	2	del	PRE:det	del	O	O
101	3	squillare	VER:infi	squillare	Cause_to_open	B-LU
101	4	a	PRE	a	O	O
101	5	venti	ADJ	venti	Cause_to_open	I-Device
101	6	gradi	NOM	grado	Cause_to_open	I-Value

102	1	alza	VER:pres	alzare	Cause_to_open	B-LU
102	2	le	DET:def	il	O	O
102	3	prossime	ADJ	prossimo	O	O
102	4	mia	PRO:poss	mio	O	O

103	1	alza	VER:pres	alzare	Increase_position_on_a_scale	B-LU
103	2	la	DET:def	il	O	O
103	3	ventola	NOM	ventola	Increase_position_on_a_scale	B-Device

104	1	attiva	VER:pres	attivare	Contacting	B-LU
104	2	in	PRE	in	O	O
104	3	soggiorno	NOM	soggiorno	Contacting	B-Place

105	1	alza	VER:pres	alzare	Cause_to_open	B-LU
105	2	persiana	ADJ	persiano	O	O

106	1	imposta	NOM	imposta	O	O
106	2	telefono	NOM	telefono	Set_value_on_a_scale	I-Device

107	1	accese	ADJ	acceso	O	O

108	1	arieggia	VER:pres	arieggiare	Cause_to_open	B-LU
108	2	la	DET:def	il	O	O
108	3	tapparella	NOM	tapparella	Cause_to_open	B-Device

109	1	apri	VER:pres	aprire	Cause_to_open	B-LU
109	2	la	DET:def	il	O	O
109	3	soffusa	ADJ	soffuso	Cause_to_open	B-Device

110	1	al	PRE:det	al	O	O
110	2	telefono	NOM	telefono	Put_into_operation	B-Device

111	1	vorrei	VER:cond	volere	Contacting	B-LU
111	2	sms	NOM	sms	O	O

112	1	abbassa	VER:pres	abbassare	Put_into_operation	B-LU
112	2	in	PRE	in	O	O
112	3	soggiorno	NOM	soggiorno	Put_into_operation	B-Place
112	4	della	PRE:det	del	O	O
112	5	tv	NOM	tv	Put_into_operation	B-Device
112	6	e	CON	e	O	O

113	1	tira	VER:pres	tirare	Put_into_operation	B-LU
113	2	l	VER:impe	l	O	O
113	3	′	PON	′	O	O
113	4	aria	NOM	aria	Put_into_operation	B-Device
113	5	tavolo	NOM	tavolo	Put_into_operation	I-Device

114	1	attiva	ADJ	attivo	Put_into_operation	B-LU
114	2	corridoio	NOM	corridoio	Put_into_operation	B-Place

115	1	apri	VER:pres	aprire	Cause_to_open	B-LU
115	2	la	DET:def	il	O	O
115	3	porta	NOM	porta	Cause_to_open	B-Device
115	4	del	PRE:det	del	Cause_to_open	I-Device
115	5	balcone	NOM	balcone	Cause_to_open	I-Device
115	6	in	PRE	in	O	O
115	7	camera	NOM	camera	Cause_to_open	B-Place

116	1	aprire	VER:infi	aprire	Cause_to_open	B-LU
116	2	la	DET:def	il	O	O
116	3	porta	NOM	porta	Cause_to_open	B-Device
116	4	del	PRE:det	del	O	O
116	5	del	PRE:det	del	O	O
116	6	corridoio	NOM	corridoio	Cause_to_open	B-Place

117	1	apri	VER:pres	aprire	Cause_to_open	B-LU
117	2	la	DET:def	il	O	O
117	3	porta	NOM	porta	Cause_to_open	B-Device
117	4	della	PRE:det	del	O	O
117	5	camera	NOM	camera	Cause_to_open	B-Place
117	6	da	PRE	da	Cause_to_open	I-Place
117	7	le	DET:def	il	O	O
117	8	serrande	NOM	serranda	Cause_to_open	I-Device

118	1	apri	VER:pres	aprire	Cause_to_open	B-LU
118	2	la	DET:def	il	O	O
118	3	porta	NOM	porta	Cause_to_open	B-Device
118	4	della	PRE:det	del	O	O
118	5	cucina	NOM	cucina	Cause_to_open	B-Place

119	1	tira	VER:pres	tirare	O	O
119	2	decoder	VER:infi	decoder	Cause_to_open	I-LU
119	3	la	DET:def	il	O	O
119	4	porta	NOM	porta	Cause_to_open	B-Device
119	5	d	ABR	d	Cause_to_open	I-Device
119	6	′	PON	′	Cause_to_open	I-Device
119	7	ingresso	NOM	ingresso	Cause_to_open	I-Device

120	1	chiamare	VER:infi	chiamare	Contacting	B-LU
120	2	ingresso	NOM	ingresso	Contacting	I-Device

121	1	apri	VER:pres	aprire	Cause_to_open	B-LU
121	2	la	DET:def	il	O	O
121	3	porta	NOM	porta	Cause_to_open	B-Device
121	4	diffondi	VER:pres	diffondere	O	O
121	5	ingresso	NOM	ingresso	O	O

122	1	fai	VER:pres	fare	Contacting	B-LU
122	2	chiamando	VER:geru	chiamare	O	O

123	1	tira	VER:pres	tirare	Cause_to_open	B-LU
123	2	l	VER:impe	l	O	O
123	3	′	PON	′	O	O
123	4	asciugacapelli	NOM	asciugacapelli	Cause_to_open	B-Device

124	1	attiva	VER:pres	attivare	Contacting	B-LU
124	2	del	PRE:det	del	O	O
124	3	soggiorno	NOM	soggiorno	Contacting	B-Place

125	1	apri	VER:pres	aprire	Cause_to_open	B-LU
125	2	la	DET:def	il	O	O
125	3	finestra	NOM	finestra	Cause_to_open	B-Device

126	1	apri	VER:pres	aprire	Cause_to_open	B-LU
126	2	le	DET:def	il	O	O
126	3	tapparelle	NOM	tapparella	Cause_to_open	B-Device
126	4	vai	ADJ	vaio	O	O
126	5	su	ADV	su	Cause_to_open	I-Device

127	1	mia	PRO:poss	mio	O	O
127	2	sorella	NOM	sorella	Contacting	B-Addressee
127	3	lo	DET:def	il	O	O
127	4	sportello	NOM	sportello	O	O
127	5	dell	NOM	dell	O	O
127	6	′	PON	′	O	O
127	7	armadio	NOM	armadio	Contacting	I-Device

128	1	apri	VER:pres	aprire	Cause_to_open	B-LU
128	2	la	DET:def	il	O	O
128	3	porta	NOM	porta	Cause_to_open	B-Device
128	4	del	PRE:det	del	Cause_to_open	I-Device
128	5	pc	ABR	pc	Cause_to_open	I-Device

129	1	vorrei	VER:cond	volere	O	O
129	2	solo	ADV	solo	O	O
129	3	qui	ADV	qui	O	O

130	1	vorrei	VER:cond	volere	O	O
130	2	radiatore	NOM	radiatore	Check_status	I-Device

131	1	arieggia	VER:pres	arieggiare	Check_status	B-LU
131	2	salotto	NOM	salotto	Check_status	B-Place

132	1	tira	VER:pres	tirare	Put_into_operation	B-LU
132	2	rinfresca	VER:impe	rinfrescare	O	O
132	3	termostato	NOM	termostato	O	O

133	1	attiva	VER:pres	attivare	Contacting	B-LU
133	2	cellulare	ADJ	cellulare	Contacting	B-Device

134	1	apri	VER:pres	aprire	Check_status	B-LU
134	2	le	DET:def	il	O	O
134	3	luci	NOM	luce	Check_status	B-Device
134	4	potresti	VER:cond	potere	Check_status	I-Device

135	1	attiva	VER:pres	attivare	Contacting	B-LU
135	2	l	VER:impe	l	O	O
135	3	′	PON	′	O	O
135	4	armadio	NOM	armadio	Contacting	I-Device

136	1	attiva	VER:pres	attivare	Contacting	B-LU
136	2	il	DET:def	il	O	O
136	3	condizionatore	NOM	condizionatore	Contacting	B-Device

137	1	attiva	VER:pres	attivare	Contacting	B-LU
137	2	il	DET:def	il	O	O
137	3	phon	NOM	phon	Contacting	B-Device

138	1	attiva	VER:pres	attivare	Put_into_operation	B-LU
138	2	il	DET:def	il	O	O
138	3	riscaldamento	NOM	riscaldamento	Put_into_operation	B-Device
138	4	stasera	ADV	stasera	O	O

139	1	attiva	VER:pres	attivare	Contacting	B-LU
139	2	in	PRE	in	O	O
139	3	camera	NOM	camera	Contacting	B-Place

140	1	attiva	VER:pres	attivare	Contacting	B-LU
140	2	il	DET:def	il	O	O
140	3	ventilatore	ADJ	ventilatore	Contacting	B-Device
140	4	porta	NOM	porta	Contacting	I-Device
140	5	qui	ADV	qui	Contacting	B-Place

141	1	attiva	ADJ	attivo	Put_into_operation	B-LU
141	2	lo	PRO:pers	lo	O	O
141	3	del	PRE:det	del	O	O
141	4	soggiorno	NOM	soggiorno	Put_into_operation	B-Place

142	1	attiva	VER:pres	attivare	Contacting	B-LU
142	2	e	CON	e	O	O
142	3	la	DET:def	il	O	O
142	4	luce	NOM	luce	Contacting	B-Device

143	1	attiva	VER:pres	attivare	Contacting	B-LU
143	2	del	PRE:det	del	O	O
143	3	soggiorno	NOM	soggiorno	Contacting	B-Place

144	1	attiva	VER:pres	attivare	Put_into_operation	B-LU
144	2	l	VER:impe	l	O	O
144	3	′	PON	′	O	O
144	4	aria	NOM	aria	Put_into_operation	B-Device
144	5	condizionata	ADJ	condizionato	Put_into_operation	I-Device
144	6	tv	NOM	tv	Put_into_operation	B-Device
144	7	e	CON	e	O	O

145	1	attiva	VER:pres	attivare	Put_into_operation	B-LU
145	2	lo	DET:def	il	O	O
145	3	stereo	NOM	stereo	Put_into_operation	B-Device
145	4	il	DET:def	il	O	O
145	5	termostato	NOM	termostato	Put_into_operation	B-Device

146	1	attiva	VER:pres	attivare	Contacting	B-LU
146	2	l	VER:impe	l	O	O
146	3	′	PON	′	O	O
146	4	aspiratore	NOM	aspiratore	O	O
146	5	alla	PRE:det	al	O	O
146	6	velocita	NOM	velocita	O	O
146	7	′	PON	′	O	O
146	8	minima	ADJ	minimo	O	O

147	1	attiva	ADJ	attivo	Put_into_operation	B-LU
147	2	ventilazione	NOM	ventilazione	Put_into_operation	B-Device

148	1	attiva	VER:pres	attivare	Contacting	B-LU
148	2	lo	DET:def	il	O	O
148	3	sciacquone	NOM	sciacquone	Contacting	B-Device

149	1	attiva	ADJ	attivo	Put_into_operation	B-LU
149	2	solleva	VER:pres	sollevare	O	O
149	3	un	DET:indef	un	O	O
149	4	grado	NOM	grado	Put_into_operation	I-Value

150	1	fai	VER:pres	fare	O	O
150	2	partire	VER:infi	partire	Put_into_operation	B-LU
150	3	stato	VER:pper	essere|stare	O	O
150	4	della	PRE:det	del	O	O
150	5	radio	NOM	radio	Put_into_operation	I-Device

151	1	attiva	ADJ	attivo	Put_into_operation	B-LU
151	2	dell	NOM	dell	O	O
151	3	′	PON	′	O	O
151	4	armadio	NOM	armadio	Put_into_operation	I-Device

152	1	attiva	VER:pres	attivare	Put_into_operation	B-LU
152	2	la	DET:def	il	O	O
152	3	luce	NOM	luce	Put_into_operation	B-Device
152	4	del	PRE:det	del	Put_into_operation	I-Device

153	1	vorrei	VER:cond	volere	O	O
153	2	fammi	VER:impe	fare	O	O
153	3	vedere	VER:infi	vedere	Cause_to_open	B-LU
153	4	la	DET:def	il	O	O
153	5	porta	ADJ	porta|porto	Cause_to_open	B-Device
153	6	dell	NOM	dell	Cause_to_open	I-Device
153	7	′	PON	′	Cause_to_open	I-Device
153	8	appartamento	NOM	appartamento	Cause_to_open	I-Device

154	1	lavello	NOM	lavello	O	O

155	1	piano	NOM	piano	Check_status	B-LU
155	2	del	PRE:det	del	O	O
155	3	soggiorno	NOM	soggiorno	Check_status	B-Place

156	1	cambia	VER:pres	cambiare	O	O
156	2	canale	NOM	canale	O	O

157	1	accendi	VER:pres	accendere	Put_into_operation	B-LU
157	2	la	DET:def	il	O	O
157	3	luce	NOM	luce	Put_into_operation	B-Device

158	1	chiudi	VER:pres	chiudere	Cause_to_close	B-LU
158	2	la	DET:def	il	O	O
158	3	tapparella	NOM	tapparella	Cause_to_close	B-Device

159	1	tira	VER:pres	tirare	Cause_to_open	B-LU

160	1	chiudi	VER:pres	chiudere	Cause_to_close	B-LU
160	2	la	DET:def	il	O	O
160	3	porta	NOM	porta	Cause_to_close	B-Device
160	4	della	PRE:det	del	O	O
160	5	camera	NOM	camera	Cause_to_close	B-Place

161	1	chiudi	VER:pres	chiudere	Terminate_communication	B-LU
161	2	la	DET:def	il	O	O
161	3	ventola	NOM	ventola	Terminate_communication	B-Device

162	1	chiudi	VER:pres	chiudere	Cause_to_close	B-LU
162	2	la	DET:def	il	O	O
162	3	finestra	NOM	finestra	Cause_to_close	B-Device

163	1	chiudi	VER:pres	chiudere	Cause_to_close	B-LU
163	2	la	DET:def	il	O	O
163	3	tapparella	NOM	tapparella	Cause_to_close	B-Device

164	1	telefono	NOM	telefono	O	O

165	1	telecamera	NOM	telecamera	O	O
165	2	cucina	NOM	cucina	Set_value_on_a_range	B-Place
165	3	gradi	NOM	grado	Set_value_on_a_range	I-Value

166	1	chiudi	VER:pres	chiudere	Cause_to_close	B-LU
166	2	la	DET:def	il	O	O
166	3	porta	NOM	porta	Cause_to_close	B-Device

167	1	chiudi	VER:pres	chiudere	Cause_to_close	B-LU
167	2	la	DET:def	il	O	O
167	3	porta	NOM	porta	Cause_to_close	B-Device
167	4	che	PRO:rela	che	O	O
167	5	da	PRE	da	O	O
167	6	sul	PRE:det	sul	O	O
167	7	balcone	NOM	balcone	Cause_to_close	B-Place

168	1	chiudi	VER:pres	chiudere	Cause_to_close	B-LU
168	2	la	DET:def	il	O	O
168	3	porta	NOM	porta	Cause_to_close	B-Device
168	4	del	PRE:det	del	Cause_to_close	I-Device
168	5	balcone	NOM	balcone	Cause_to_close	I-Device
168	6	sul	PRE:det	sul	O	O
168	7	balcone	NOM	balcone	Cause_to_close	B-Place

169	1	tira	VER:pres	tirare	Cause_to_close	B-LU
169	2	chiudi	VER:impe	chiudere	Cause_to_close	I-LU
169	3	la	DET:def	il	O	O
169	4	porta	NOM	porta	Cause_to_close	B-Device
169	5	della	PRE:det	del	O	O
169	6	camera	NOM	camera	Cause_to_close	B-Place

170	1	chiudi	VER:pres	chiudere	Cause_to_close	B-LU
170	2	la	DET:def	il	O	O
170	3	porta	NOM	porta	Cause_to_close	B-Device
170	4	della	PRE:det	del	O	O
170	5	cucina	NOM	cucina	Cause_to_close	B-Place

171	1	chiudi	VER:pres	chiudere	Cause_to_close	B-LU
171	2	la	DET:def	il	O	O
171	3	porta	NOM	porta	Cause_to_close	B-Device
171	4	del	PRE:det	del	O	O
171	5	soggiorno	NOM	soggiorno	Cause_to_close	B-Place

172	1	chiudi	VER:pres	chiudere	Cause_to_close	B-LU
172	2	la	DET:def	il	O	O
172	3	porta	NOM	porta	Cause_to_close	B-Device
172	4	del	PRE:det	del	O	O
172	5	soggiorno	NOM	soggiorno	Cause_to_close	B-Place

173	1	videoregistratore	NOM	videoregistratore	O	O

174	1	chiudi	VER:pres	chiudere	Cause_to_close	B-LU
174	2	la	DET:def	il	O	O
174	3	porta	NOM	porta	Cause_to_close	B-Device
174	4	del	PRE:det	del	O	O
174	5	soggiorno	NOM	soggiorno	Cause_to_close	B-Place

175	1	chiudi	VER:pres	chiudere	Cause_to_close	B-LU
175	2	la	DET:def	il	O	O
175	3	porta	ADJ	porta|porto	Cause_to_close	B-Device
175	4	finestra	NOM	finestra	Cause_to_close	B-Device

176	1	il	DET:def	il	O	O
176	2	ventilatore	NOM	ventilatore	Put_into_operation	B-Device
176	3	del	PRE:det	del	O	O
176	4	soggiorno	NOM	soggiorno	Put_into_operation	B-Place

177	1	chiudi	VER:pres	chiudere	Cause_to_close	B-LU
177	2	la	DET:def	il	O	O
177	3	porta	NOM	porta	Cause_to_close	B-Device
177	4	piccole	ADJ	piccolo	Cause_to_close	I-Device

178	1	chiudi	VER:pres	chiudere	Cause_to_close	B-LU
178	2	la	DET:def	il	O	O
178	3	tapparella	NOM	tapparella	Cause_to_close	B-Device
178	4	qui	ADV	qui	Cause_to_close	B-Place

179	1	chiudi	VER:pres	chiudere	Cause_to_close	B-LU
179	2	la	DET:def	il	O	O
179	3	tapparella	NOM	tapparella	Cause_to_close	B-Device

180	1	chiudi	VER:pres	chiudere	Terminate_communication	B-LU
180	2	porte	VER:pper	porgere	O	O

181	1	ci	PRO:refl	ci	O	O
181	2	sono	VER:pres	essere|sonare	Check_status	B-LU
181	3	stasera	ADV	stasera	Check_status	I-Communication

182	1	tira	VER:pres	tirare	Cause_to_close	B-LU
182	2	radiatore	NOM	radiatore	O	O
182	3	corridoio	NOM	corridoio	Cause_to_close	B-Place

183	1	chiudi	VER:pres	chiudere	Terminate_communication	B-LU
183	2	per	PRE	per	O	O
183	3	favore	NOM	favore	O	O

184	1	fai	VER:pres	fare	O	O
184	2	entrare	VER:infi	entrare	Put_into_operation	B-LU
184	3	piu	NOM	piu	O	O
184	4	′	PON	′	O	O
184	5	luce	ADJ	luce	Put_into_operation	B-Device
184	6	cucina	NOM	cucina	Put_into_operation	B-Place

185	1	fai	VER:pres	fare	O	O
185	2	partire	VER:infi	partire	Put_into_operation	B-LU
185	3	dvd	NOM	dvd	O	O

186	1	fai	VER:pres	fare	O	O
186	2	partire	VER:infi	partire	Put_out_of_operation	B-LU
186	3	ventilatore	ADJ	ventilatore	O	O
186	4	del	PRE:det	del	O	O
186	5	bagno	NOM	bagno	Put_out_of_operation	B-Place
186	6	spegnilo	VER:impe	spegnere	Put_out_of_operation	B-LU
186	7	tra	PRE	tra	O	O
186	8	trenta	ADJ	trenta	O	O
186	9	minuti	NOM	minuto	O	O

187	1	fratello	NOM	fratello	Contacting	B-LU
187	2	italiauno	ADJ	italiauno	Contacting	I-Device

188	1	apri	VER:pres	aprire	Cause_to_open	B-LU
188	2	finestra	NOM	finestra	Cause_to_open	B-Device

189	1	fai	VER:pres	fare	O	O
189	2	partire	VER:infi	partire	Contacting	B-LU
189	3	condizionata	VER:pper	condizionare	O	O
189	4	a	PRE	a	O	O
189	5	diciannove	ADJ	diciannove	Contacting	I-Device
189	6	gradi	NOM	grado	O	O
189	7	gira	VER:pres	girare	Contacting	B-LU
189	8	su	ADV	su	Contacting	I-LU

190	1	per	PRE	per	O	O
190	2	favore	NOM	favore	O	O

191	1	passa	ADJ	passo	Cause_to_open	B-LU
191	2	all	NOM	all	O	O
191	3	′	PON	′	O	O
191	4	phone	NOM	phone	O	O
191	5	fornello	NOM	fornello	Cause_to_open	I-Device
191	6	su	ADV	su	Cause_to_open	I-Device

192	1	fai	VER:pres	fare	O	O
192	2	suonare	VER:infi	suonare	O	O

193	1	fammi	VER:impe	fare	O	O
193	2	vedere	VER:infi	vedere	Cause_to_open	B-LU
193	3	la	DET:def	il	O	O
193	4	porta	NOM	porta	Cause_to_open	B-Device
193	5	del	PRE:det	del	O	O
193	6	soggiorno	NOM	soggiorno	Cause_to_open	B-Place

194	1	gira	VER:pres	girare	Terminate_communication	B-LU
194	2	su	ADV	su	Terminate_communication	I-LU
194	3	raiuno	VER:pres	raiuno	O	O
194	4	piacere	VER:infi	piacere	O	O
194	5	appartamento	NOM	appartamento	O	O
194	6	chiudi	VER:pres	chiudere	Terminate_communication	B-LU
194	7	la	DET:def	il	O	O

195	1	imposta	NOM	imposta	O	O
195	2	configurazione	NOM	configurazione	O	O
195	3	telegiornale	NOM	telegiornale	Check_status	I-Device

196	1	imposta	NOM	imposta	O	O
196	2	il	DET:def	il	O	O
196	3	telefono	NOM	telefono	Set_value_on_a_scale	B-Device
196	4	in	PRE	in	O	O
196	5	modalita	NOM	modalita	O	O
196	6	′	PON	′	O	O
196	7	silenziosa	ADJ	silenzioso	Set_value_on_a_scale	I-Device
196	8	chiama	NOM	chiama	O	O

197	1	imposta	NOM	imposta	O	O
197	2	timer	NOM	timer	O	O
197	3	dell	NOM	dell	O	O
197	4	′	PON	′	O	O
197	5	aria	NOM	aria	Put_out_of_operation	B-Device
197	6	condizionata	ADJ	condizionato	Put_out_of_operation	I-Device
197	7	smartphone	VER:geru	smartphone	O	O
197	8	spenga	VER:cpre	spegnere|spengere	Put_out_of_operation	B-LU
197	9	tra	PRE	tra	Put_out_of_operation	B-Time
197	10	due	ADJ	due	Put_out_of_operation	I-Time
197	11	ore	NOM	ora	O	O

198	1	imposta	NOM	imposta	O	O
198	2	la	DET:def	il	O	O
198	3	televisione	NOM	televisione	Set_value_on_a_range	B-Device
198	4	gradi	NOM	grado	Set_value_on_a_range	I-Device

199	1	imposta	NOM	imposta	O	O
199	2	termostato	NOM	termostato	O	O
199	3	al	PRE:det	al	O	O

200	1	la	DET:def	il	O	O
200	2	finestra	NOM	finestra	Cause_to_open	B-Device
200	3	corridoio	NOM	corridoio	Cause_to_open	B-Place

201	1	luce	NOM	luce	Set_value_on_a_scale	B-Device
201	2	soffusa	ADJ	soffuso	Set_value_on_a_scale	B-Value

202	1	mantieni	VER:pres	mantenere	Set_value_on_a_range	B-LU
202	2	aperta	VER:pper	aprire	O	O
202	3	la	DET:def	il	O	O
202	4	porta	NOM	porta	Set_value_on_a_range	B-Device
202	5	del	PRE:det	del	O	O
202	6	soggiorno	NOM	soggiorno	Set_value_on_a_range	B-Place

203	1	mantieni	VER:pres	mantenere	Set_value_on_a_range	B-LU
203	2	temperatura	NOM	temperatura	Set_value_on_a_range	B-Property
203	3	a	PRE	a	O	O
203	4	venti	ADJ	venti	Set_value_on_a_range	I-Device
203	5	gradi	NOM	grado	Set_value_on_a_range	I-Value
203	6	la	DET:def	il	O	O
203	7	porta	NOM	porta	Set_value_on_a_range	B-Device

204	1	la	DET:def	il	O	O
204	2	temperatura	NOM	temperatura	Cause_to_open	B-Property
204	3	a	PRE	a	O	O
204	4	venti	ADJ	venti	Cause_to_open	I-Device
204	5	gradi	NOM	grado	O	O
204	6	tira	VER:pres	tirare	O	O

205	1	mantieni	VER:pres	mantenere	Set_value_on_a_range	B-LU
205	2	temperatura	NOM	temperatura	Set_value_on_a_range	B-Property
205	3	a	PRE	a	O	O
205	4	venti	ADJ	venti	Set_value_on_a_range	I-Device
205	5	gradi	NOM	grado	O	O
205	6	sala	NOM	sala	Set_value_on_a_range	B-Place

206	1	della	PRE:det	del	O	O
206	2	veranda	NOM	veranda	Check_status	I-Device

207	1	metti	VER:pres	mettere	Set_value_on_a_range	B-LU
207	2	telegiornale	NOM	telegiornale	O	O

208	1	chiudi	VER:impe	chiudere	Terminate_communication	B-LU
208	2	la	PRO:pers	la	O	O
208	3	spegnessi	VER:cimp	spegnere	O	O

209	1	metti	VER:pres	mettere	Set_value_on_a_range	B-LU
209	2	su	PRE	su	O	O
209	3	canalecinque	ADJ	canalecinque	Set_value_on_a_range	B-Value

210	1	serrande	NOM	serranda	Cause_to_open	B-LU
210	2	su	PRE	su	O	O
210	3	italiauno	NOM	italiauno	Cause_to_open	B-Value

211	1	metti	VER:pres	mettere	Set_value_on_a_range	B-LU
211	2	su	PRE	su	O	O
211	3	raitre	NOM	raitre	Set_value_on_a_range	B-Value
211	4	italiauno	ADJ	italiauno	Set_value_on_a_range	I-Device

212	1	metti	VER:pres	mettere	Set_value_on_a_range	B-LU
212	2	su	PRE	su	O	O
212	3	raiuno	NOM	raiuno	Set_value_on_a_range	B-Value
212	4	e	CON	e	O	O
212	5	alla	PRE:det	al	O	O

213	1	metti	VER:pres	mettere	Cause_to_open	B-LU
213	2	su	PRE	su	Cause_to_open	I-LU
213	3	la	DET:def	il	O	O
213	4	porta	NOM	porta	Cause_to_open	B-Device

214	1	metti	VER:pres	mettere	Decrease_value_on_a_range	B-LU
214	2	su	PRE	su	O	O
214	3	raiuno	VER:infi	raiuno	Decrease_value_on_a_range	B-Value
214	4	e	CON	e	O	O
214	5	abbassa	VER:impe	abbassare	O	O
214	6	il	DET:def	il	O	O
214	7	volume	NOM	volume	Decrease_value_on_a_range	B-Property

215	1	metti	VER:pres	mettere	Set_value_on_a_range	B-LU
215	2	la	DET:def	il	O	O
215	3	cassetta	NOM	cassetta	Set_value_on_a_range	B-Device

216	1	mi	PRO:pers	mi	O	O
216	2	accenderesti	VER:cond	accendere	Put_into_operation	B-LU
216	3	la	DET:def	il	O	O
216	4	registra	VER:pres	registrare	O	O
216	5	questo	PRO:demo	questo	O	O
216	6	programma	NOM	programma	O	O

217	1	chiudi	VER:pres	chiudere	Terminate_communication	B-LU
217	2	la	DET:def	il	O	O
217	3	temperatura	NOM	temperatura	Terminate_communication	B-Property

218	1	passa	VER:pres	passare	Check_status	B-LU
218	2	digitale	ADJ	digitale	O	O
218	3	terrestre	NOM	terrestre	O	O
218	4	radio	ADJ	radio	Check_status	I-Device

219	1	per	PRE	per	O	O
219	2	cortesia	NOM	cortesia	O	O
219	3	spengi	VER:pres	spengere	O	O
219	4	salotto	NOM	salotto	Check_status	B-Place

220	1	chiudi	VER:pres	chiudere	Cause_to_close	B-LU
220	2	la	DET:def	il	O	O
220	3	porta	NOM	porta	Cause_to_close	B-Device
220	4	del	PRE:det	del	O	O
220	5	soggiorno	NOM	soggiorno	Cause_to_close	B-Place

221	1	per	PRE	per	O	O
221	2	favore	NOM	favore	O	O
221	3	spegni	VER:pres	spegnare|spegnere	Put_out_of_operation	B-LU
221	4	la	DET:def	il	O	O
221	5	luce	NOM	luce	Put_out_of_operation	B-Device
221	6	dove	PRO:rela	dove	Put_out_of_operation	B-Place
221	7	la	DET:def	il	O	O
221	8	luce	NOM	luce	Put_out_of_operation	B-Device

222	1	per	PRE	per	O	O
222	2	favore	NOM	favore	O	O
222	3	spegni	VER:pres	spegnare|spegnere	Put_out_of_operation	B-LU
222	4	la	DET:def	il	O	O
222	5	televisione	NOM	televisione	Put_out_of_operation	B-Device
222	6	su	PRE	su	O	O
222	7	italiauno	NOM	italiauno	Put_out_of_operation	B-Value

223	1	le	DET:def	il	O	O
223	2	persiane	NOM	persiana|persiano	Cause_to_open	B-Device
223	3	vocale	ADJ	vocale	Cause_to_open	I-Device
223	4	poggiolo	NOM	poggiolo	O	O
223	5	cucina	NOM	cucina	Cause_to_open	B-Place

224	1	in	PRE	in	O	O
224	2	camera	NOM	camera	Set_value_on_a_range	B-Place
224	3	da	PRE	da	Set_value_on_a_range	I-Place
224	4	due	ADJ	due	O	O
224	5	gradi	NOM	grado	Set_value_on_a_range	I-Value

225	1	potresti	VER:cond	potere	O	O
225	2	e	CON	e	O	O
225	3	la	DET:def	il	O	O
225	4	persiana	NOM	persiana|persiano	Cause_to_open	B-Device
225	5	della	PRE:det	del	O	O
225	6	camera	NOM	camera	Cause_to_open	B-Place

226	1	entrambi	ADJ	entrambi	Put_into_operation	B-LU
226	2	i	DET:def	il	Put_into_operation	I-Device
226	3	comodini	NOM	comodino	Put_into_operation	I-Device

227	1	spegni	VER:pres	spegnare|spegnere	Put_out_of_operation	B-LU
227	2	la	DET:def	il	O	O
227	3	lampada	NOM	lampada	Put_out_of_operation	B-Device
227	4	qui	ADV	qui	O	O

228	1	spegni	VER:pres	spegnare|spegnere	Put_out_of_operation	B-LU
228	2	del	PRE:det	del	O	O
228	3	salotto	NOM	salotto	Put_out_of_operation	B-Place

229	1	registra	VER:pres	registrare	Check_status	B-LU

230	1	registra	VER:pres	registrare	Check_status	B-LU
230	2	questo	PRO:demo	questo	O	O
230	3	programma	NOM	programma	O	O
230	4	qui	ADV	qui	Check_status	B-Place
230	5	mezz	NOM	mezz	O	O
230	6	′	PON	′	O	O

231	1	regola	NOM	regola	Check_status	B-LU
231	2	condizionatore	NOM	condizionatore	Check_status	I-Device

232	1	per	PRE	per	O	O
232	2	corridoio	NOM	corridoio	Check_status	B-Place

233	1	regola	NOM	regola	Decrease_value_on_a_range	B-LU
233	2	temperatura	NOM	temperatura	Decrease_value_on_a_range	B-Property
233	3	a	PRE	a	O	O
233	4	venti	NOM	venti|vento	Decrease_value_on_a_range	B-Value
233	5	due	ADJ	due	Decrease_value_on_a_range	B-LU
233	6	la	DET:def	il	O	O
233	7	luce	NOM	luce	Decrease_value_on_a_range	B-Device
233	8	in	PRE	in	Decrease_value_on_a_range	I-Device

234	1	regola	VER:pres	regolare	Check_status	B-LU
234	2	la	DET:def	il	O	O
234	3	temperatura	NOM	temperatura	Check_status	B-Property
234	4	di	PRE	di	O	O
234	5	modalita	NOM	modalita	Check_status	I-Device
234	6	′	PON	′	O	O
234	7	silenziosa	ADJ	silenzioso	Check_status	I-Device

235	1	regola	NOM	regola	Set_value_on_a_range	B-LU
235	2	temperatura	NOM	temperatura	Set_value_on_a_range	B-Property
235	3	a	PRE	a	O	O
235	4	venti	ADJ	venti	Set_value_on_a_range	I-Device
235	5	gradi	NOM	grado	O	O
235	6	radio	ADJ	radio	Set_value_on_a_range	I-Device

236	1	rispondi	VER:pres	rispondere	Accept_Communication	B-LU
236	2	al	PRE:det	al	O	O
236	3	campanello	NOM	campanello	Accept_Communication	B-Device
236	4	modifica	VER:pres	modificare	Accept_Communication	B-LU
236	5	la	DET:def	il	O	O

237	1	rispondi	VER:pres	rispondere	Accept_Communication	B-LU
237	2	al	PRE:det	al	O	O
237	3	cellulare	ADJ	cellulare	Accept_Communication	B-Device

238	1	rispondi	VER:pres	rispondere	Accept_Communication	B-LU
238	2	al	PRE:det	al	O	O
238	3	citofono	NOM	citofono	Accept_Communication	B-Device

239	1	rispondi	VER:pres	rispondere	Accept_Communication	B-LU
239	2	al	PRE:det	al	O	O
239	3	citofono	NOM	citofono	Accept_Communication	B-Device

240	1	rispondi	VER:pres	rispondere	Accept_Communication	B-LU
240	2	al	PRE:det	al	O	O
240	3	citofono	NOM	citofono	Accept_Communication	B-Device
240	4	mia	PRO:poss	mio	O	O

241	1	sportello	NOM	sportello	O	O

242	1	rispondi	VER:pres	rispondere	Accept_Communication	B-LU
242	2	al	PRE:det	al	O	O
242	3	citofono	NOM	citofono	Accept_Communication	B-Device

243	1	rispondi	VER:pres	rispondere	Accept_Communication	B-LU
243	2	al	PRE:det	al	O	O

244	1	sblocca	VER:impe	sbloccare	Contacting	B-LU
244	2	mia	PRO:poss	mio	O	O
244	3	sorella	NOM	sorella	Contacting	B-Addressee

245	1	sms	NOM	sms	O	O
245	2	sono	VER:pres	essere|sonare	Contacting	B-Communication
245	3	impegnato	VER:pper	impegnare	Contacting	I-Communication
245	4	stasera	ADV	stasera	Contacting	I-Communication
245	5	chiamata	VER:pper	chiamare	O	O

246	1	tira	VER:pres	tirare	Cause_to_open	B-LU
246	2	lo	DET:def	il	O	O
246	3	vista	NOM	vista	Cause_to_open	B-Device

247	1	spegneresti	VER:cond	spegnare|spegnere	Put_out_of_operation	B-LU
247	2	le	DET:def	il	O	O
247	3	luci	NOM	luce	O	O
247	4	corridoio	NOM	corridoio	Put_out_of_operation	B-Place
247	5	se	CON	se	O	O
247	6	sono	VER:pres	essere|sonare	O	O
247	7	accese	VER:pper	accendere	Put_out_of_operation	I-LU

248	1	spegni	VER:pres	spegnare|spegnere	Put_out_of_operation	B-LU
248	2	bagno	NOM	bagno	Put_out_of_operation	B-Place

249	1	spegni	VER:pres	spegnare|spegnere	Put_out_of_operation	B-LU
249	2	il	DET:def	il	O	O
249	3	computer	NOM	computer	Put_out_of_operation	B-Device
249	4	grazie	NOM	grazia	O	O
249	5	raiuno	ADJ	raiuno	Put_out_of_operation	I-Device

250	1	spegni	VER:pres	spegnare|spegnere	Put_out_of_operation	B-LU
250	2	il	DET:def	il	O	O
250	3	condizionatore	NOM	condizionatore	Put_out_of_operation	B-Device

251	1	stereo	ADJ	stereo	Decrease_value_on_a_range	B-LU
251	2	la	DET:def	il	O	O
251	3	luce	NOM	luce	Decrease_value_on_a_range	B-Device

252	1	spegni	VER:pres	spegnare|spegnere	Put_out_of_operation	B-LU
252	2	il	DET:def	il	O	O
252	3	volume	NOM	volume	Put_out_of_operation	B-Property
252	4	della	PRE:det	del	O	O

253	1	spegni	VER:pres	spegnare|spegnere	Put_out_of_operation	B-LU
253	2	lumino	NOM	lumino	Put_out_of_operation	B-Device

254	1	spegni	VER:pres	spegnare|spegnere	Put_out_of_operation	B-LU
254	2	il	DET:def	il	O	O
254	3	monitor	NOM	monitor	Put_out_of_operation	B-Device
254	4	del	PRE:det	del	Put_out_of_operation	I-Device
254	5	computer	NOM	computer	Put_out_of_operation	B-Device
254	6	grazie	NOM	grazia	O	O

255	1	in	PRE	in	O	O
255	2	camera	NOM	camera	Set_value_on_a_range	B-Place
255	3	da	PRE	da	Set_value_on_a_range	I-Place
255	4	sul	PRE:det	sul	Set_value_on_a_range	I-Place

256	1	spegni	VER:pres	spegnare|spegnere	Put_out_of_operation	B-LU
256	2	la	DET:def	il	O	O
256	3	lampada	NOM	lampada	Put_out_of_operation	B-Device
256	4	lo	DET:def	il	Put_out_of_operation	I-Device
256	5	stereo	NOM	stereo	Put_out_of_operation	B-Device

257	1	spegni	VER:pres	spegnare|spegnere	Put_out_of_operation	B-LU
257	2	il	DET:def	il	O	O
257	3	phon	NOM	phon	Put_out_of_operation	B-Device
257	4	la	DET:def	il	O	O
257	5	luce	NOM	luce	Put_out_of_operation	B-Device

258	1	spegni	VER:pres	spegnare|spegnere	Put_out_of_operation	B-LU
258	2	il	DET:def	il	O	O
258	3	dello	PRE:det	del	O	O
258	4	specchio	NOM	specchio	Put_out_of_operation	I-Device

259	1	spegni	VER:pres	spegnare|spegnere	Put_out_of_operation	B-LU
259	2	il	DET:def	il	O	O
259	3	ricevitore	NOM	ricevitore	Put_out_of_operation	B-Device
259	4	la	PRO:pers	la	Put_out_of_operation	I-Device

260	1	se	CON	se	O	O
260	2	sono	VER:pres	essere|sonare	O	O
260	3	menu	NOM	menu	O	O
260	4	se	PRO:refl	se	O	O
260	5	sono	VER:pres	essere|sonare	O	O

261	1	spegni	VER:pres	spegnare|spegnere	Put_out_of_operation	B-LU
261	2	il	DET:def	il	O	O
261	3	riscaldamento	NOM	riscaldamento	Put_out_of_operation	B-Device
261	4	in	PRE	in	O	O
261	5	questa	PRO:demo	questo	O	O
261	6	stanza	NOM	stanza	Put_out_of_operation	B-Place

262	1	spegni	VER:pres	spegnare|spegnere	Put_out_of_operation	B-LU
262	2	il	DET:def	il	O	O
262	3	riscaldamento	NOM	riscaldamento	Put_out_of_operation	B-Device
262	4	soggiorno	NOM	soggiorno	Put_out_of_operation	B-Place

263	1	spegni	VER:pres	spegnare|spegnere	Put_out_of_operation	B-LU
263	2	del	PRE:det	del	O	O
263	3	bagno	NOM	bagno	Put_out_of_operation	B-Place

264	1	spegni	VER:pres	spegnare|spegnere	Put_out_of_operation	B-LU
264	2	le	DET:def	il	O	O
264	3	sorella	NOM	sorella	Put_out_of_operation	B-Addressee

265	1	fammi	VER:impe	fare	O	O
265	2	vedere	VER:infi	vedere	Put_into_operation	B-LU
265	3	lettore	NOM	lettore	O	O
265	4	dvd	NOM	dvd	Put_into_operation	I-Device

266	1	spegni	VER:pres	spegnare|spegnere	Put_out_of_operation	B-LU
266	2	la	DET:def	il	O	O
266	3	in	PRE	in	O	O
266	4	soggiorno	NOM	soggiorno	Put_out_of_operation	B-Place

267	1	spegni	VER:pres	spegnare|spegnere	Put_out_of_operation	B-LU
267	2	il	DET:def	il	O	O
267	3	ventilatore	NOM	ventilatore	Put_out_of_operation	B-Device
267	4	del	PRE:det	del	O	O
267	5	bagno	NOM	bagno	Put_out_of_operation	B-Place

268	1	spegni	VER:pres	spegnare|spegnere	Put_out_of_operation	B-LU
268	2	le	DET:def	il	O	O
268	3	calorifero	NOM	calorifero	Put_out_of_operation	I-Device

269	1	spegni	VER:pres	spegnare|spegnere	Put_out_of_operation	B-LU
269	2	la	DET:def	il	O	O

270	1	spegni	VER:pres	spegnare|spegnere	Put_out_of_operation	B-LU
270	2	la	DET:def	il	O	O
270	3	tapparella	NOM	tapparella	Put_out_of_operation	B-Device

271	1	tira	VER:pres	tirare	Cause_to_close	B-LU
271	2	e	CON	e	O	O
271	3	abbassa	VER:pres	abbassare	Cause_to_close	B-LU
271	4	la	DET:def	il	O	O
271	5	tv	NOM	tv	Cause_to_close	B-Device

272	1	spegni	VER:pres	spegnare|spegnere	Put_out_of_operation	B-LU
272	2	la	DET:def	il	O	O
272	3	lampada	NOM	lampada	Put_out_of_operation	B-Device
272	4	spenga	VER:cpre	spegnere|spengere	Put_out_of_operation	I-Device

273	1	spegni	VER:pres	spegnare|spegnere	Put_out_of_operation	B-LU
273	2	la	DET:def	il	O	O
273	3	lampada	NOM	lampada	Put_out_of_operation	B-Device
273	4	lavandino	NOM	lavandino	Put_out_of_operation	I-Device

274	1	spegni	VER:pres	spegnare|spegnere	Put_out_of_operation	B-LU
274	2	la	DET:def	il	O	O
274	3	lampada	NOM	lampada	Put_out_of_operation	B-Device
274	4	la	DET:def	il	O	O
274	5	televisione	NOM	televisione	Put_out_of_operation	B-Device

275	1	luce	NOM	luce	Put_into_operation	B-Device
275	2	la	DET:def	il	O	O
275	3	lampada	NOM	lampada	Put_into_operation	B-Device
275	4	salotto	NOM	salotto	Put_into_operation	B-Place

276	1	spegni	VER:pres	spegnare|spegnere	Put_out_of_operation	B-LU
276	2	la	DET:def	il	O	O
276	3	lampada	NOM	lampada	Put_out_of_operation	B-Device
276	4	lavandino	NOM	lavandino	Put_out_of_operation	I-Device

277	1	spegni	VER:pres	spegnare|spegnere	Put_out_of_operation	B-LU
277	2	la	DET:def	il	O	O
277	3	dall	NOM	dall	O	O
277	4	′	PON	′	O	O
277	5	esterno	ADJ	esterno	Put_out_of_operation	I-Device

278	1	spegni	VER:pres	spegnare|spegnere	Put_out_of_operation	B-LU
278	2	la	DET:def	il	O	O
278	3	sul	PRE:det	sul	O	O
278	4	tavolino	NOM	tavolino	Put_out_of_operation	B-Device
278	5	e	CON	e	O	O
278	6	la	DET:def	il	O	O
278	7	temperatura	NOM	temperatura	Put_out_of_operation	B-Property

279	1	si	PRO:pers	si	O	O
279	2	dell	NOM	dell	O	O
279	3	′	PON	′	O	O
279	4	angolo	NOM	angolo	Check_status	B-Place
279	5	cottura	NOM	cottura	Check_status	I-Place

280	1	spegni	VER:pres	spegnare|spegnere	Put_out_of_operation	B-LU
280	2	la	DET:def	il	O	O
280	3	soffusa	ADJ	soffuso	Put_out_of_operation	B-Device

281	1	spegni	VER:pres	spegnare|spegnere	Put_out_of_operation	B-LU
281	2	la	DET:def	il	O	O
281	3	luce	NOM	luce	Put_out_of_operation	B-Device
281	4	della	PRE:det	del	O	O
281	5	solo	ADV	solo	O	O
281	6	qui	ADV	qui	O	O

282	1	spegni	VER:pres	spegnare|spegnere	Put_out_of_operation	B-LU
282	2	la	DET:def	il	O	O
282	3	luce	NOM	luce	Put_out_of_operation	B-Device
282	4	del	PRE:det	del	O	O
282	5	bagno	NOM	bagno	Put_out_of_operation	B-Place
282	6	il	DET:def	il	O	O

283	1	spegni	VER:pres	spegnare|spegnere	Put_out_of_operation	B-LU
283	2	la	DET:def	il	O	O
283	3	esegui	VER:pres	eseguire	O	O
283	4	il	DET:def	il	O	O
283	5	neon	NOM	neon	Put_out_of_operation	B-Device
283	6	della	PRE:det	del	Put_out_of_operation	I-Device

284	1	spegni	VER:pres	spegnare|spegnere	Put_out_of_operation	B-LU
284	2	la	DET:def	il	O	O
284	3	televisione	NOM	televisione	Put_out_of_operation	B-Device
284	4	vivavoce	ADJ	vivavoce	Put_out_of_operation	I-Device

285	1	spegni	VER:pres	spegnare|spegnere	Put_out_of_operation	B-LU
285	2	le	DET:def	il	O	O
285	3	luci	NOM	luce	Put_out_of_operation	B-Device
285	4	della	PRE:det	del	O	O
285	5	cucina	NOM	cucina	Put_out_of_operation	B-Place
285	6	lavello	NOM	lavello	O	O

286	1	spegni	VER:pres	spegnare|spegnere	Put_out_of_operation	B-LU
286	2	la	DET:def	il	O	O
286	3	luce	ADJ	luce	Put_out_of_operation	B-Device
286	4	dell	NOM	dell	O	O
286	5	′	PON	′	O	O
286	6	angolo	NOM	angolo	Put_out_of_operation	B-Place
286	7	cottura	NOM	cottura	Put_out_of_operation	I-Place

287	1	spegni	VER:pres	spegnare|spegnere	Put_out_of_operation	B-LU
287	2	il	DET:def	il	O	O
287	3	allo	PRE:det	al	Put_out_of_operation	I-Device
287	4	specchio	NOM	specchio	Put_out_of_operation	I-Device
287	5	grazie	NOM	grazia	O	O

288	1	spegni	VER:pres	spegnare|spegnere	Put_out_of_operation	B-LU
288	2	la	DET:def	il	O	O
288	3	luce	NOM	luce	Put_out_of_operation	B-Device
288	4	dello	PRE:det	del	Put_out_of_operation	I-Device
288	5	specchio	NOM	specchio	Put_out_of_operation	I-Device
288	6	camera	NOM	camera	Put_out_of_operation	B-Place

289	1	spegni	VER:pres	spegnare|spegnere	Put_out_of_operation	B-LU
289	2	la	DET:def	il	O	O
289	3	luce	NOM	luce	Put_out_of_operation	B-Device
289	4	sta	VER:pres	stare	O	O
289	5	chiamando	VER:geru	chiamare	O	O
289	6	piantana	NOM	piantana	Put_out_of_operation	I-Device

290	1	accendi	VER:pres	accendere	Put_into_operation	B-LU
290	2	la	DET:def	il	O	O
290	3	luce	NOM	luce	Put_into_operation	B-Device
290	4	del	PRE:det	del	Put_into_operation	I-Device
290	5	piano	NOM	piano	Put_into_operation	B-Place
290	6	cottura	NOM	cottura	Put_into_operation	I-Place

291	1	spegni	VER:pres	spegnare|spegnere	Put_out_of_operation	B-LU
291	2	le	DET:def	il	O	O
291	3	luci	NOM	luce	Put_out_of_operation	B-Device
291	4	del	PRE:det	del	Put_out_of_operation	I-Device
291	5	lavello	NOM	lavello	Put_out_of_operation	I-Device

292	1	terrestre	NOM	terrestre	Check_status	B-LU
292	2	solo	ADV	solo	O	O
292	3	qui	ADV	qui	O	O

293	1	spegni	VER:pres	spegnare|spegnere	Put_out_of_operation	B-LU
293	2	la	DET:def	il	O	O
293	3	luce	NOM	luce	Put_out_of_operation	B-Device
293	4	del	PRE:det	del	O	O
293	5	soggiorno	NOM	soggiorno	Put_out_of_operation	B-Place
293	6	grazie	NOM	grazia	O	O

294	1	della	PRE:det	del	O	O
294	2	calorifero	NOM	calorifero	Check_status	I-Device
294	3	grazie	NOM	grazia	O	O

295	1	spegni	VER:pres	spegnare|spegnere	Put_out_of_operation	B-LU
295	2	le	DET:def	il	O	O
295	3	luci	NOM	luce	Put_out_of_operation	B-Device
295	4	lo	PRO:pers	lo	Put_out_of_operation	I-Device

296	1	spegni	VER:pres	spegnare|spegnere	Put_out_of_operation	B-LU
296	2	le	DET:def	il	O	O
296	3	luci	NOM	luce	Put_out_of_operation	I-Device
296	4	in	PRE	in	O	O
296	5	bagno	NOM	bagno	Put_out_of_operation	B-Place

297	1	spegni	VER:pres	spegnare|spegnere	Put_out_of_operation	B-LU
297	2	le	DET:def	il	O	O
297	3	luci	NOM	luce	Put_out_of_operation	B-Device
297	4	vicino	ADJ	vicino	Put_out_of_operation	I-Device
297	5	alla	PRE:det	al	Put_out_of_operation	I-Device

298	1	spegni	VER:pres	spegnare|spegnere	Put_out_of_operation	B-LU
298	2	la	DET:def	il	O	O
298	3	temperatura	NOM	temperatura	Put_out_of_operation	B-Property
298	4	a	PRE	a	O	O
298	5	venti	NOM	venti|vento	Put_out_of_operation	I-Device

299	1	spegni	VER:pres	spegnare|spegnere	Put_out_of_operation	B-LU
299	2	le	DET:def	il	O	O
299	3	soggiorno	NOM	soggiorno	Put_out_of_operation	B-Place

300	1	chiudi	VER:pres	chiudere	Terminate_communication	B-LU
300	2	la	DET:def	il	O	O
300	3	luce	NOM	luce	Terminate_communication	B-Device
300	4	del	PRE:det	del	O	O
300	5	corridoio	NOM	corridoio	Terminate_communication	B-Place

301	1	spegni	VER:pres	spegnare|spegnere	Put_out_of_operation	B-LU
301	2	la	DET:def	il	O	O
301	3	luce	ADJ	luce	Put_out_of_operation	B-Device
301	4	dell	NOM	dell	O	O
301	5	′	PON	′	O	O
301	6	angolo	NOM	angolo	Put_out_of_operation	I-Device

302	1	spegni	VER:pres	spegnare|spegnere	Put_out_of_operation	B-LU
302	2	la	DET:def	il	O	O
302	3	luce	NOM	luce	Put_out_of_operation	B-Device
302	4	sopra	ADJ	sopra	Put_out_of_operation	I-Device
302	5	lavandino	NOM	lavandino	Put_out_of_operation	I-Device

303	1	spegni	VER:pres	spegnare|spegnere	Put_out_of_operation	B-LU
303	2	la	DET:def	il	O	O
303	3	luce	NOM	luce	Put_out_of_operation	B-Device
303	4	sopra	ADJ	sopra	Put_out_of_operation	I-Device
303	5	fornello	NOM	fornello	Put_out_of_operation	I-Device

304	1	spegni	VER:pres	spegnare|spegnere	Put_out_of_operation	B-LU
304	2	la	DET:def	il	O	O
304	3	temperatura	NOM	temperatura	Put_out_of_operation	B-Property
304	4	a	PRE	a	O	O
304	5	venti	ADJ	venti	Put_out_of_operation	I-Device
304	6	gradi	NOM	grado	Put_out_of_operation	I-Value

305	1	spegni	VER:pres	spegnare|spegnere	Put_out_of_operation	B-LU
305	2	la	DET:def	il	O	O
305	3	luce	NOM	luce	Put_out_of_operation	B-Device
305	4	sopra	ADV	sopra	Put_out_of_operation	I-Device
305	5	partire	VER:infi	partire	Put_out_of_operation	B-LU
305	6	le	DET:def	il	O	O
305	7	luci	NOM	luce	Put_out_of_operation	I-Device

306	1	socchiudi	VER:pres	socchiudere	Decrease_value_on_a_range	B-Value
306	2	le	DET:def	il	O	O
306	3	luci	NOM	luce	Decrease_value_on_a_range	B-Device
306	4	della	PRE:det	del	O	O
306	5	giroscale	ADJ	giroscale	Decrease_value_on_a_range	B-Place

307	1	spegni	VER:pres	spegnare|spegnere	Put_out_of_operation	B-LU
307	2	le	DET:def	il	O	O
307	3	luci	NOM	luce	Put_out_of_operation	B-Device
307	4	vicino	ADJ	vicino	Put_out_of_operation	I-Device
307	5	sala	NOM	sala	Put_out_of_operation	B-Place
307	6	su	ADV	su	Put_out_of_operation	I-Device

308	1	chiudi	VER:pres	chiudere	Terminate_communication	B-LU
308	2	la	DET:def	il	O	O
308	3	televisione	NOM	televisione	Terminate_communication	B-Device

309	1	spegni	VER:pres	spegnare|spegnere	Put_out_of_operation	B-LU
309	2	la	DET:def	il	O	O
309	3	televisione	NOM	televisione	Put_out_of_operation	B-Device

310	1	chiudi	VER:pres	chiudere	Terminate_communication	B-LU
310	2	la	DET:def	il	O	O

311	1	chiudi	VER:pres	chiudere	Terminate_communication	B-LU
311	2	televisore	NOM	televisore	O	O
311	3	e	CON	e	O	O
311	4	la	DET:def	il	O	O
311	5	lampada	NOM	lampada	Terminate_communication	B-Device

312	1	spegni	VER:pres	spegnare|spegnere	Put_out_of_operation	B-LU
312	2	la	DET:def	il	O	O
312	3	televisione	NOM	televisione	Put_out_of_operation	B-Device
312	4	e	CON	e	O	O
312	5	la	DET:def	il	O	O
312	6	porta	ADJ	porta|porto	Put_out_of_operation	B-Device
312	7	stanza	NOM	stanza	Put_out_of_operation	B-Place

313	1	spegni	VER:pres	spegnare|spegnere	Put_out_of_operation	B-LU
313	2	la	DET:def	il	O	O
313	3	televisione	NOM	televisione	Put_out_of_operation	B-Device
313	4	aumentare	VER:infi	aumentare	O	O

314	1	spegni	VER:pres	spegnare|spegnere	Put_out_of_operation	B-LU
314	2	la	DET:def	il	O	O
314	3	tv	NOM	tv	Put_out_of_operation	B-Device
314	4	e	CON	e	O	O
314	5	la	DET:def	il	O	O
314	6	fornello	NOM	fornello	Put_out_of_operation	I-Device

315	1	per	PRE	per	O	O
315	2	favore	NOM	favore	O	O
315	3	al	PRE:det	al	O	O

316	1	spegni	VER:pres	spegnare|spegnere	Put_out_of_operation	B-LU
316	2	la	DET:def	il	O	O
316	3	tv	NOM	tv	Put_out_of_operation	B-Device
316	4	la	DET:def	il	O	O
316	5	luce	NOM	luce	Put_out_of_operation	B-Device
316	6	della	PRE:det	del	O	O
316	7	camera	NOM	camera	Put_out_of_operation	B-Place

317	1	spegni	VER:pres	spegnare|spegnere	Put_out_of_operation	B-LU
317	2	la	DET:def	il	O	O
317	3	ventola	NOM	ventola	Put_out_of_operation	B-Device
317	4	del	PRE:det	del	Put_out_of_operation	I-Device

318	1	spegni	VER:pres	spegnare|spegnere	Put_out_of_operation	B-LU
318	2	la	DET:def	il	O	O
318	3	ventola	NOM	ventola	Put_out_of_operation	B-Device

319	1	metti	VER:pres	mettere	Set_value_on_a_range	B-LU
319	2	su	PRE	su	O	O
319	3	decoder	VER:infi	decoder	O	O

320	1	spegni	VER:pres	spegnare|spegnere	Put_out_of_operation	B-LU
320	2	la	DET:def	il	O	O
320	3	gradi	NOM	grado	Put_out_of_operation	B-Device

321	1	spegni	VER:pres	spegnare|spegnere	Put_out_of_operation	B-LU
321	2	la	DET:def	il	O	O
321	3	porta	NOM	porta	Put_out_of_operation	B-Device
321	4	chiudi	VER:pres	chiudere	Put_out_of_operation	B-LU
321	5	la	DET:def	il	O	O
321	6	tapparella	NOM	tapparella	Put_out_of_operation	B-Device

322	1	spegni	VER:pres	spegnare|spegnere	Put_out_of_operation	B-LU
322	2	le	DET:def	il	O	O
322	3	luci	NOM	luce	Put_out_of_operation	B-Device
322	4	alla	PRE:det	al	Put_out_of_operation	I-Device

323	1	spegni	VER:pres	spegnare|spegnere	Put_out_of_operation	B-LU
323	2	le	DET:def	il	O	O
323	3	luci	NOM	luce	Put_out_of_operation	B-Device
323	4	accese	ADJ	acceso	Put_out_of_operation	I-Device
323	5	in	PRE	in	O	O
323	6	soggiorno	NOM	soggiorno	Put_out_of_operation	B-Place

324	1	spegni	VER:pres	spegnare|spegnere	Put_out_of_operation	B-LU
324	2	le	DET:def	il	O	O
324	3	luci	NOM	luce	Put_out_of_operation	B-Device
324	4	del	PRE:det	del	O	O
324	5	corridoio	NOM	corridoio	Put_out_of_operation	B-Place
324	6	su	ADV	su	Put_out_of_operation	I-Device

325	1	spegni	VER:pres	spegnare|spegnere	Put_out_of_operation	B-LU
325	2	le	DET:def	il	O	O
325	3	luci	NOM	luce	Put_out_of_operation	B-Device
325	4	della	PRE:det	del	O	O
325	5	camera	NOM	camera	Put_out_of_operation	B-Place

326	1	spegni	VER:pres	spegnare|spegnere	Put_out_of_operation	B-LU
326	2	il	DET:def	il	O	O
326	3	stasera	ADV	stasera	O	O

327	1	dischi	NOM	disco	Check_status	B-LU
327	2	le	DET:def	il	Check_status	I-Device
327	3	luci	NOM	luce	Check_status	B-Device
327	4	della	PRE:det	del	O	O
327	5	sta	VER:pres	stare	O	O

328	1	spegni	VER:pres	spegnare|spegnere	Put_out_of_operation	B-LU
328	2	il	DET:def	il	O	O
328	3	lavello	NOM	lavello	Put_out_of_operation	I-Device

329	1	spegni	VER:pres	spegnare|spegnere	Put_out_of_operation	B-LU
329	2	le	DET:def	il	O	O
329	3	luci	NOM	luce	Put_out_of_operation	I-Device
329	4	in	PRE	in	O	O
329	5	soggiorno	NOM	soggiorno	Put_out_of_operation	B-Place
329	6	a	PRE	a	O	O
329	7	venti	NOM	venti|vento	Put_out_of_operation	B-Value
329	8	la	PRO:pers	la	O	O

330	1	spegni	VER:pres	spegnare|spegnere	Put_out_of_operation	B-LU
330	2	le	DET:def	il	O	O
330	3	luci	NOM	luce	Put_out_of_operation	I-Device
330	4	in	PRE	in	O	O
330	5	salotto	NOM	salotto	Put_out_of_operation	B-Place

331	1	spengi	VER:pres	spengere	Check_status	B-LU
331	2	soggiorno	NOM	soggiorno	Check_status	B-Place
331	3	clima	NOM	clima	O	O

332	1	spegni	VER:pres	spegnare|spegnere	Put_out_of_operation	B-LU
332	2	le	DET:def	il	O	O
332	3	luci	NOM	luce	Put_out_of_operation	I-Device
332	4	in	PRE	in	O	O
332	5	bagno	NOM	bagno	Put_out_of_operation	B-Place

333	1	spegni	VER:pres	spegnare|spegnere	Put_out_of_operation	B-LU
333	2	le	DET:def	il	O	O
333	3	serrande	NOM	serranda	Put_out_of_operation	B-Device
333	4	corridoio	NOM	corridoio	Put_out_of_operation	B-Place

334	1	spegni	VER:pres	spegnare|spegnere	Put_out_of_operation	B-LU
334	2	le	DET:def	il	O	O
334	3	luci	NOM	luce	Put_out_of_operation	B-Device
334	4	voglio	VER:pres	volere	O	O
334	5	abbassare	VER:infi	abbassare	Put_out_of_operation	B-LU
334	6	il	DET:def	il	O	O

335	1	spengi	VER:pres	spengere	Check_status	B-LU
335	2	salotto	NOM	salotto	Check_status	B-Place

336	1	spegni	VER:pres	spegnare|spegnere	Put_out_of_operation	B-LU
336	2	le	DET:def	il	O	O
336	3	camera	NOM	camera	Put_out_of_operation	B-Address

337	1	spegni	VER:pres	spegnare|spegnere	Put_out_of_operation	B-LU
337	2	luce	ADJ	luce	Put_out_of_operation	B-Device
337	3	comodini	NOM	comodino	Put_out_of_operation	I-Device

338	1	se	CON	se	O	O
338	2	sono	VER:pres	essere|sonare	O	O
338	3	accese	VER:pper	accendere	O	O
338	4	cucina	NOM	cucina	Check_status	B-Place

339	1	spegni	VER:pres	spegnare|spegnere	Put_out_of_operation	B-LU
339	2	le	DET:def	il	O	O
339	3	luci	NOM	luce	Put_out_of_operation	B-Device
339	4	del	PRE:det	del	Put_out_of_operation	I-Device

340	1	spegni	VER:pres	spegnare|spegnere	Put_out_of_operation	B-LU
340	2	pure	ADV	pure	Put_out_of_operation	B-Device
340	3	le	DET:def	il	O	O
340	4	luci	NOM	luce	Put_out_of_operation	B-Device
340	5	del	PRE:det	del	Put_out_of_operation	I-Device
340	6	lavello	NOM	lavello	Put_out_of_operation	I-Device

341	1	spegni	VER:pres	spegnare|spegnere	Put_out_of_operation	B-LU
341	2	tutte	ADJ	tutto	Put_out_of_operation	B-Device
341	3	le	DET:def	il	Put_out_of_operation	I-Device
341	4	lampade	NOM	lampada	Put_out_of_operation	B-Device
341	5	messaggi	NOM	messaggio	Put_out_of_operation	B-Device
341	6	soffusa	ADJ	soffuso	Put_out_of_operation	B-Value

342	1	spegni	VER:pres	spegnare|spegnere	Put_out_of_operation	B-LU
342	2	delle	PRE:det	del	Put_out_of_operation	B-Device
342	3	altre	ADJ	altro	Put_out_of_operation	B-Place
342	4	stanze	NOM	stanza	Put_out_of_operation	I-Place

343	1	per	PRE	per	O	O
343	2	cortesia	NOM	cortesia	O	O

344	1	spegni	VER:pres	spegnare|spegnere	Put_out_of_operation	B-LU
344	2	le	DET:def	il	O	O
344	3	due	ADJ	due	Put_out_of_operation	I-Device
344	4	gradi	NOM	grado	Put_out_of_operation	I-Value

345	1	tira	VER:pres	tirare	Put_out_of_operation	B-LU
345	2	spegniti	VER:impe	spegnere	O	O
345	3	luce	ADJ	luce	Put_out_of_operation	B-Device

346	1	radiatore	NOM	radiatore	O	O

347	1	attiva	VER:pres	attivare	Put_into_operation	B-LU
347	2	l	VER:impe	l	O	O
347	3	′	PON	′	O	O
347	4	aria	NOM	aria	Put_into_operation	B-Device

348	1	spegni	VER:pres	spegnare|spegnere	Put_out_of_operation	B-LU
348	2	le	DET:def	il	O	O
348	3	luci	NOM	luce	Put_out_of_operation	I-Device

349	1	sportello	NOM	sportello	Check_status	B-LU
349	2	accese	ADJ	acceso	Check_status	I-Device

350	1	temperatura	NOM	temperatura	Set_value_on_a_range	B-Property
350	2	a	PRE	a	O	O
350	3	venti	ADJ	venti	Set_value_on_a_range	I-Device
350	4	gradi	NOM	grado	Set_value_on_a_range	I-Value

351	1	chiudi	VER:pres	chiudere	Cause_to_close	B-LU
351	2	la	DET:def	il	O	O
351	3	porta	NOM	porta	Cause_to_close	B-Device

352	1	attiva	VER:pres	attivare	Contacting	B-LU
352	2	lo	DET:def	il	O	O
352	3	sciacquone	NOM	sciacquone	Contacting	B-Device

353	1	il	DET:def	il	O	O
353	2	sapone	NOM	sapone	Check_status	B-Device

354	1	tira	VER:pres	tirare	Cause_to_open	B-LU
354	2	sciacquone	NOM	sciacquone	Cause_to_open	B-Device

355	1	videocitofono	NOM	videocitofono	O	O

356	1	voglio	VER:pres	volere	Check_status	B-LU
356	2	cellulare	ADJ	cellulare	Check_status	B-Device

357	1	vai	NOM	vaio	Increase_value_on_range	B-LU
357	2	su	PRE	su	O	O
357	3	canalecinque	ADJ	canalecinque	Increase_value_on_range	B-Value
357	4	corridoio	NOM	corridoio	Increase_value_on_range	B-Place

358	1	verifica	NOM	verifica	O	O
358	2	della	PRE:det	del	O	O
358	3	cucina	NOM	cucina	Check_status	B-Place

359	1	modifica	VER:pres	modificare	Cause_to_open	B-LU
359	2	la	DET:def	il	O	O
359	3	porta	NOM	porta	Cause_to_open	B-Device

360	1	tira	VER:pres	tirare	Cause_to_open	B-LU
360	2	l	VER:impe	l	O	O
360	3	′	PON	′	O	O
360	4	acqua	NOM	acqua	O	O
360	5	dello	PRE:det	del	O	O

361	1	finestra	NOM	finestra	Cause_to_open	B-LU
361	2	tapparelle	NOM	tapparella	Cause_to_open	B-Place
361	3	soggiorno	NOM	soggiorno	Cause_to_open	B-Place

362	1	pure	ADV	pure	Check_status	B-LU
362	2	la	DET:def	il	O	O
362	3	temperatura	NOM	temperatura	Check_status	B-Property
362	4	in	PRE	in	O	O
362	5	sala	NOM	sala	Check_status	B-Place
362	6	se	CON	se	O	O

363	1	vorrei	VER:cond	volere	Cause_to_open	B-LU
363	2	che	PRO:rela	che	O	O
363	3	spegnessi	VER:cimp	spegnere	O	O
363	4	le	DET:def	il	O	O
363	5	abatjour	NOM	abatjour	Cause_to_open	B-Device
363	6	finestra	NOM	finestra	Cause_to_open	B-Device
363	7	computer	NOM	computer	Cause_to_open	B-Device
363	8	tira	VER:pres	tirare	O	O

364	1	vorrei	VER:cond	volere	O	O
364	2	chiamare	VER:infi	chiamare	Contacting	B-LU
364	3	silenziosa	ADJ	silenzioso	Contacting	I-Value

