0	1	abbassa	VER:pres	abbassare	Decrease_value_on_a_range	B-LU
0	2	la	DET:def	il	O	O
0	3	televisione	NOM	televisione	Decrease_value_on_a_range	B-Device

1	1	tv	NOM	tv	Decrease_value_on_a_range	B-Device
1	2	e	CON	e	O	O
1	3	abbassa	VER:impe	abbassare	O	O
1	4	il	DET:def	il	O	O
1	5	termosifone	NOM	termosifone	Decrease_value_on_a_range	B-Device

2	1	il	DET:def	il	O	O
2	2	volume	NOM	volume	Check_status	B-Property

3	1	alza	VER:pres	alzare	Increase_value_on_range	B-LU
3	2	il	DET:def	il	O	O
3	3	volume	NOM	volume	Increase_value_on_range	B-Property
3	4	della	PRE:det	del	O	O
3	5	cucina	NOM	cucina	Increase_value_on_range	B-Place

4	1	imposta	NOM	imposta	O	O
4	2	allo	PRE:det	al	Check_status	I-Device
4	3	specchio	NOM	specchio	Check_status	I-Device

5	1	abbassa	VER:pres	abbassare	Cause_to_close	B-LU
5	2	il	DET:def	il	O	O

6	1	alza	VER:pres	alzare	Increase_value_on_range	B-LU
6	2	la	DET:def	il	O	O
6	3	luce	NOM	luce	Increase_value_on_range	B-Device
6	4	della	PRE:det	del	O	O
6	5	cucina	NOM	cucina	Increase_value_on_range	B-Place
6	6	e	CON	e	O	O

7	1	apri	VER:pres	aprire	Put_into_operation	B-LU
7	2	la	DET:def	il	O	O
7	3	luce	NOM	luce	Put_into_operation	B-Device
7	4	del	PRE:det	del	Put_into_operation	I-Device
7	5	lavello	NOM	lavello	Put_into_operation	I-Device

8	1	abbassa	VER:pres	abbassare	Cause_to_close	B-LU
8	2	la	DET:def	il	O	O
8	3	persiana	NOM	persiana|persiano	Cause_to_close	B-Device
8	4	della	PRE:det	del	O	O

9	1	di	PRE	di	O	O
9	2	e	CON	e	O	O
9	3	abbassa	VER:pres	abbassare	Cause_to_close	B-LU
9	4	la	DET:def	il	O	O
9	5	tapparella	NOM	tapparella	Cause_to_close	B-Device

10	1	tira	VER:pres	tirare	Cause_to_open	B-LU
10	2	solo	ADV	solo	O	O
10	3	qui	ADV	qui	O	O

11	1	chiudi	VER:pres	chiudere	Cause_to_close	B-LU
11	2	la	DET:def	il	O	O
11	3	alzare	VER:infi	alzare	Cause_to_close	B-LU
11	4	la	DET:def	il	O	O
11	5	porta	NOM	porta	Cause_to_close	B-Device
11	6	del	PRE:det	del	O	O
11	7	bagno	NOM	bagno	Cause_to_close	B-Place

12	1	abbassa	VER:pres	abbassare	Decrease_value_on_a_range	B-LU
12	2	il	DET:def	il	O	O
12	3	volume	NOM	volume	Decrease_value_on_a_range	B-Property
12	4	della	PRE:det	del	O	O
12	5	veranda	NOM	veranda	Decrease_value_on_a_range	I-Device

13	1	abbassa	VER:pres	abbassare	Decrease_value_on_a_range	B-LU
13	2	la	DET:def	il	O	O
13	3	tv	NOM	tv	Decrease_value_on_a_range	B-Device
13	4	aprimi	VER:impe	aprire	O	O

14	1	abbassa	VER:pres	abbassare	Cause_to_close	B-LU
14	2	fornello	NOM	fornello	O	O

15	1	apri	NOM	apro	Put_out_of_operation	B-LU
15	2	disattiva	VER:pres	disattivare	O	O
15	3	camera	NOM	camera	Put_out_of_operation	B-Place

16	1	attiva	VER:pres	attivare	Contacting	B-LU
16	2	il	DET:def	il	O	O
16	3	lettore	NOM	lettore	Contacting	B-Device
16	4	dvd	ADJ	dvd	Contacting	I-Device

17	1	accenderesti	VER:cond	accendere	Put_into_operation	B-LU
17	2	la	DET:def	il	O	O
17	3	luce	NOM	luce	Put_into_operation	B-Device
17	4	rispondi	VER:pres	rispondere	O	O
17	5	al	PRE:det	al	O	O

18	1	accendi	VER:pres	accendere	Put_into_operation	B-LU
18	2	il	DET:def	il	O	O
18	3	phone	NOM	phone	Put_into_operation	B-Device

19	1	accendi	VER:pres	accendere	Put_into_operation	B-LU
19	2	il	DET:def	il	O	O
19	3	volume	NOM	volume	Put_into_operation	B-Property
19	4	radio	ADJ	radio	Put_into_operation	I-Device

20	1	chiudi	VER:pres	chiudere	Terminate_communication	B-LU
20	2	la	DET:def	il	O	O
20	3	temperatura	NOM	temperatura	Terminate_communication	B-Property

21	1	accendi	VER:pres	accendere	Put_into_operation	B-LU
21	2	sala	NOM	sala	Put_into_operation	B-Place

22	1	accendi	VER:pres	accendere	Put_into_operation	B-LU
22	2	la	DET:def	il	O	O
22	3	luce	NOM	luce	Put_into_operation	B-Device

23	1	accendi	VER:pres	accendere	Put_into_operation	B-LU
23	2	lo	DET:def	il	O	O

24	1	accendi	VER:pres	accendere	Put_into_operation	B-LU
24	2	il	DET:def	il	O	O
24	3	condizionatore	NOM	condizionatore	Put_into_operation	B-Device
24	4	trenta	ADJ	trenta	Put_into_operation	I-Device
24	5	minuti	ADJ	minuto	Put_into_operation	I-Device

25	1	accendi	VER:pres	accendere	Put_into_operation	B-LU
25	2	monitor	NOM	monitor	Put_into_operation	B-Device
25	3	mia	PRO:poss	mio	O	O
25	4	sorella	NOM	sorella	Put_into_operation	B-Addressee

26	1	accendi	VER:pres	accendere	Put_into_operation	B-LU
26	2	la	DET:def	il	O	O
26	3	luce	NOM	luce	Put_into_operation	B-Device
26	4	del	PRE:det	del	Put_into_operation	I-Device
26	5	balcone	NOM	balcone	Put_into_operation	I-Device

27	1	accendi	VER:pres	accendere	Put_into_operation	B-LU
27	2	il	DET:def	il	O	O
27	3	condizionatore	NOM	condizionatore	Put_into_operation	B-Device
27	4	tavolino	NOM	tavolino	Put_into_operation	I-Device

28	1	chiudi	VER:pres	chiudere	Terminate_communication	B-LU
28	2	la	DET:def	il	O	O
28	3	telefono	NOM	telefono	Terminate_communication	B-Device

29	1	il	DET:def	il	O	O
29	2	condizionatore	NOM	condizionatore	Put_into_operation	B-Device

30	1	accendi	VER:pres	accendere	Put_into_operation	B-LU
30	2	il	DET:def	il	O	O
30	3	lavello	NOM	lavello	Put_into_operation	I-Device

31	1	accendi	VER:pres	accendere	Put_into_operation	B-LU
31	2	il	DET:def	il	O	O
31	3	lettore	NOM	lettore	Put_into_operation	B-Device
31	4	dvd	ADJ	dvd	Put_into_operation	I-Device

32	1	accendi	VER:pres	accendere	Put_into_operation	B-LU
32	2	lo	DET:def	il	O	O
32	3	stereo	NOM	stereo	Put_into_operation	B-Device

33	1	tira	VER:pres	tirare	Cause_to_open	B-LU
33	2	giroscale	ADJ	giroscale	O	O

34	1	del	PRE:det	del	O	O
34	2	soggiorno	NOM	soggiorno	Check_status	B-Place

35	1	accendi	VER:pres	accendere	Put_into_operation	B-LU
35	2	le	DET:def	il	O	O
35	3	luci	NOM	luce	Put_into_operation	I-Device
35	4	comando	NOM	comando	Put_into_operation	I-Device

36	1	alza	VER:pres	alzare	Increase_value_on_range	B-LU
36	2	le	DET:def	il	O	O
36	3	luci	NOM	luce	Increase_value_on_range	B-Device
36	4	porta	VER:pper	porgere	Increase_value_on_range	I-Device
36	5	del	PRE:det	del	Increase_value_on_range	I-Device
36	6	chiama	NOM	chiama	Increase_value_on_range	I-Device

37	1	accendi	VER:pres	accendere	Put_into_operation	B-LU
37	2	il	DET:def	il	O	O
37	3	riscaldamento	NOM	riscaldamento	Put_into_operation	B-Device

38	1	accendi	VER:pres	accendere	Put_into_operation	B-LU
38	2	il	DET:def	il	O	O
38	3	riscaldamento	NOM	riscaldamento	Put_into_operation	B-Device
38	4	corridoio	NOM	corridoio	Put_into_operation	B-Place

39	1	spengi	VER:pres	spengere	Check_status	B-LU
39	2	telefono	NOM	telefono	Check_status	B-Device

40	1	alza	VER:pres	alzare	Increase_value_on_range	B-LU
40	2	il	DET:def	il	O	O
40	3	termosifone	NOM	termosifone	Increase_value_on_range	B-Device

41	1	accendi	VER:pres	accendere	Put_into_operation	B-LU
41	2	rinfresca	VER:impe	rinfrescare	O	O

42	1	accendi	VER:pres	accendere	Cause_to_open	B-LU
42	2	la	DET:def	il	O	O
42	3	porta	NOM	porta	Cause_to_open	B-Device
42	4	qui	ADV	qui	Cause_to_open	B-Place

43	1	accendi	VER:pres	accendere	Put_into_operation	B-LU
43	2	il	DET:def	il	O	O
43	3	entrambi	ADJ	entrambi	Put_into_operation	B-Device
43	4	accedi	VER:pres	accedere	O	O

44	1	accendi	VER:pres	accendere	Put_into_operation	B-LU
44	2	il	DET:def	il	O	O
44	3	decoder	NOM	decoder	Put_into_operation	B-Device

45	1	accendi	VER:pres	accendere	Put_into_operation	B-LU
45	2	il	DET:def	il	O	O
45	3	fornello	NOM	fornello	Put_into_operation	I-Device

46	1	accendi	VER:pres	accendere	Put_into_operation	B-LU
46	2	la	DET:def	il	O	O
46	3	persiana	NOM	persiana|persiano	Put_into_operation	B-Device

47	1	della	PRE:det	del	O	O
47	2	piantana	NOM	piantana	Check_status	I-Device

48	1	chiudi	VER:pres	chiudere	Cause_to_close	B-LU
48	2	la	DET:def	il	O	O
48	3	porta	NOM	porta	Cause_to_close	B-Device
48	4	del	PRE:det	del	O	O
48	5	soggiorno	NOM	soggiorno	Cause_to_close	B-Place

49	1	la	DET:def	il	O	O
49	2	persiana	NOM	persiana|persiano	Cause_to_open	B-Device
49	3	della	PRE:det	del	O	O
49	4	cucina	NOM	cucina	Cause_to_open	B-Place

50	1	il	DET:def	il	O	O
50	2	sms	NOM	sms	Check_status	B-Device
50	3	dell	NOM	dell	O	O
50	4	′	PON	′	O	O
50	5	angolo	NOM	angolo	Check_status	I-Device

51	1	registratore	ADJ	registratore	Check_status	B-LU
51	2	lavello	NOM	lavello	Check_status	I-Device

52	1	accendi	VER:pres	accendere	Put_into_operation	B-LU
52	2	il	DET:def	il	O	O
52	3	radiatore	NOM	radiatore	Put_into_operation	I-Device

53	1	attiva	VER:pres	attivare	Put_into_operation	B-LU
53	2	la	DET:def	il	O	O
53	3	luce	NOM	luce	Put_into_operation	B-Device
53	4	della	PRE:det	del	O	O
53	5	cucina	NOM	cucina	Put_into_operation	B-Place

54	1	imposta	NOM	imposta	O	O
54	2	la	DET:def	il	O	O
54	3	luce	NOM	luce	Check_status	B-Device
54	4	del	PRE:det	del	O	O
54	5	salotto	NOM	salotto	Check_status	B-Place

55	1	accendi	VER:pres	accendere	Put_into_operation	B-LU
55	2	il	DET:def	il	O	O
55	3	telegiornale	NOM	telegiornale	Put_into_operation	B-Device

56	1	poggiolo	NOM	poggiolo	Check_status	B-LU
56	2	digitale	ADJ	digitale	O	O
56	3	terrestre	ADJ	terrestre	Check_status	I-Device

57	1	mantieni	VER:pres	mantenere	Put_into_operation	B-LU
57	2	telefono	NOM	telefono	Put_into_operation	B-Device
57	3	grazie	NOM	grazia	O	O

58	1	accendi	VER:pres	accendere	Terminate_communication	B-LU
58	2	le	DET:def	il	O	O
58	3	luci	NOM	luce	Terminate_communication	B-Device
58	4	vicino	ADJ	vicino	Terminate_communication	I-Device
58	5	al	PRE:det	al	O	O
58	6	favore	NOM	favore	Terminate_communication	B-Device
58	7	chiudi	VER:pres	chiudere	Terminate_communication	B-LU
58	8	la	DET:def	il	O	O

59	1	accendi	VER:pres	accendere	Put_into_operation	B-LU
59	2	la	DET:def	il	O	O
59	3	musica	ADJ	musico	O	O
59	4	modifica	NOM	modifica	O	O

60	1	accendi	VER:pres	accendere	Put_into_operation	B-LU
60	2	la	DET:def	il	O	O
60	3	ventola	NOM	ventola	Put_into_operation	B-Device

61	1	accendi	VER:pres	accendere	Put_into_operation	B-LU
61	2	la	DET:def	il	O	O
61	3	porta	NOM	porta	Put_into_operation	B-Device
61	4	della	PRE:det	del	Put_into_operation	I-Device
61	5	piantana	NOM	piantana	Put_into_operation	I-Device

62	1	accendi	VER:pres	accendere	Put_into_operation	B-LU
62	2	l	VER:impe	l	O	O
62	3	′	PON	′	O	O
62	4	aria	NOM	aria	Put_into_operation	B-Device
62	5	condizionata	ADJ	condizionato	Put_into_operation	I-Device
62	6	e	CON	e	O	O
62	7	fammi	VER:impe	fare	O	O
62	8	vedere	VER:infi	vedere	O	O

63	1	alza	VER:pres	alzare	Increase_position_on_a_scale	B-LU
63	2	ventilazione	NOM	ventilazione	Increase_position_on_a_scale	B-Device

64	1	sms	NOM	sms	O	O
64	2	armadio	NOM	armadio	Contacting	I-Device

65	1	il	DET:def	il	O	O
65	2	ventilatore	NOM	ventilatore	Set_value_on_a_range	B-Device

66	1	chiudi	VER:pres	chiudere	Cause_to_close	B-LU
66	2	la	DET:def	il	O	O
66	3	persiana	NOM	persiana|persiano	Cause_to_close	B-Device
66	4	del	PRE:det	del	O	O
66	5	soggiorno	NOM	soggiorno	Cause_to_close	B-Place

67	1	attiva	VER:pres	attivare	Contacting	B-LU
67	2	la	DET:def	il	O	O
67	3	televisione	NOM	televisione	Contacting	B-Device

68	1	accendi	VER:pres	accendere	Put_into_operation	B-LU
68	2	la	DET:def	il	O	O
68	3	tv	NOM	tv	Put_into_operation	B-Device
68	4	e	CON	e	O	O
68	5	fammi	VER:impe	fare	O	O
68	6	vedere	VER:infi	vedere	Put_into_operation	B-LU
68	7	la	DET:def	il	O	O
68	8	porta	NOM	porta	Put_into_operation	B-Device
68	9	girare	VER:infi	girare	O	O

69	1	accendi	VER:pres	accendere	Put_into_operation	B-LU
69	2	il	DET:def	il	O	O
69	3	alzare	VER:infi	alzare	O	O
69	4	italiauno	NOM	italiauno	O	O

70	1	accendi	VER:pres	accendere	Contacting	B-LU
70	2	musica	ADJ	musico	Contacting	B-Device
70	3	chiamare	VER:infi	chiamare	O	O

71	1	accendi	VER:pres	accendere	Put_into_operation	B-LU
71	2	la	DET:def	il	O	O
71	3	ventola	NOM	ventola	Put_into_operation	B-Device
71	4	persiane	ADJ	persiano	Put_into_operation	I-Device

72	1	girare	VER:infi	girare	Check_status	B-LU
72	2	corridoio	NOM	corridoio	Check_status	B-Place

73	1	accendi	VER:pres	accendere	Put_into_operation	B-LU
73	2	la	DET:def	il	O	O
73	3	regola	NOM	regola	Put_into_operation	B-Device
73	4	la	DET:def	il	O	O
73	5	persiana	NOM	persiana|persiano	Put_into_operation	B-Device
73	6	della	PRE:det	del	O	O

74	1	della	PRE:det	del	O	O
74	2	camera	NOM	camera	Set_value_on_a_range	B-Place
74	3	da	PRE	da	Set_value_on_a_range	I-Place
74	4	letto	NOM	letto	Set_value_on_a_range	I-Place

75	1	accendi	VER:pres	accendere	Put_into_operation	B-LU
75	2	il	DET:def	il	O	O
75	3	riscaldamento	NOM	riscaldamento	Put_into_operation	B-Device

76	1	chiama	VER:pres	chiamare	Contacting	B-LU
76	2	le	DET:def	il	O	O
76	3	luci	NOM	luce	Contacting	B-Device
76	4	vicino	ADJ	vicino	Contacting	I-Device
76	5	al	PRE:det	al	Contacting	I-Device
76	6	letto	NOM	letto	Contacting	I-Device

77	1	accendi	VER:pres	accendere	Put_into_operation	B-LU
77	2	ventola	NOM	ventola	Put_into_operation	B-Device

78	1	alza	VER:pres	alzare	Increase_value_on_range	B-LU
78	2	il	DET:def	il	O	O
78	3	riscaldamento	NOM	riscaldamento	Increase_value_on_range	B-Device

79	1	accendi	VER:pres	accendere	Cause_to_open	B-LU
79	2	la	DET:def	il	O	O
79	3	finestra	NOM	finestra	Cause_to_open	B-Device

80	1	accendi	VER:pres	accendere	Put_into_operation	B-LU
80	2	mantieni	VER:impe	mantenere	O	O

81	1	accendi	VER:pres	accendere	Put_into_operation	B-LU
81	2	il	DET:def	il	O	O
81	3	cellulare	ADJ	cellulare	Put_into_operation	B-Device

82	1	mantieni	VER:pres	mantenere	O	O
82	2	sono	VER:pres	essere|sonare	O	O

83	1	accendi	VER:pres	accendere	Cause_to_open	B-LU
83	2	la	DET:def	il	O	O
83	3	porta	NOM	porta	Cause_to_open	B-Device

84	1	tira	VER:pres	tirare	Decrease_value_on_a_range	B-LU
84	2	termosifone	NOM	termosifone	Decrease_value_on_a_range	B-Device

85	1	accendi	VER:pres	accendere	Put_into_operation	B-LU
85	2	il	DET:def	il	O	O
85	3	smartphone	VER:infi	smartphone	Put_into_operation	B-Device

86	1	accendi	VER:pres	accendere	Put_into_operation	B-LU
86	2	ventola	NOM	ventola	Put_into_operation	B-Device
86	3	dvd	NOM	dvd	Put_into_operation	I-Device

87	1	piacere	NOM	piacere	O	O
87	2	apri	VER:pres	aprire	Put_into_operation	B-LU
87	3	la	DET:def	il	O	O
87	4	luce	NOM	luce	Put_into_operation	B-Device
87	5	della	PRE:det	del	Put_into_operation	I-Device
87	6	piantana	NOM	piantana	Put_into_operation	I-Device

88	1	per	PRE	per	O	O
88	2	favore	NOM	favore	O	O
88	3	gradi	NOM	grado	Set_value_on_a_range	I-Value

89	1	attiva	ADJ	attivo	Put_into_operation	B-LU
89	2	corridoio	NOM	corridoio	Put_into_operation	B-Place

90	1	per	PRE	per	O	O
90	2	favore	NOM	favore	O	O
90	3	chiudi	VER:pres	chiudere	Cause_to_close	B-LU
90	4	la	DET:def	il	O	O
90	5	velux	NOM	velux	Cause_to_close	B-Device

91	1	climatizzatore	ADJ	climatizzatore	O	O
91	2	televisione	NOM	televisione	Check_status	B-Device

92	1	alza	VER:pres	alzare	Increase_value_on_range	B-LU
92	2	le	DET:def	il	O	O
92	3	luci	NOM	luce	Increase_value_on_range	I-Device
92	4	in	PRE	in	O	O
92	5	soggiorno	NOM	soggiorno	Increase_value_on_range	B-Place

93	1	apri	VER:pres	aprire	Cause_to_open	B-LU
93	2	la	DET:def	il	O	O
93	3	televisione	NOM	televisione	Cause_to_open	B-Device

94	1	tira	VER:pres	tirare	Cause_to_open	B-LU
94	2	serrande	NOM	serranda	Cause_to_open	B-Device

95	1	in	PRE	in	O	O
95	2	fondo	NOM	fondo	Cause_to_open	I-Place
95	3	al	PRE:det	al	Cause_to_open	I-Place
95	4	fammi	VER:impe	fare	O	O
95	5	vedere	VER:infi	vedere	Cause_to_open	B-LU
95	6	la	DET:def	il	O	O
95	7	finestra	NOM	finestra	Cause_to_open	B-Device
95	8	corridoio	NOM	corridoio	Cause_to_open	B-Place

96	1	alza	VER:pres	alzare	Cause_to_open	B-LU
96	2	la	DET:def	il	O	O
96	3	due	ADJ	due	O	O
96	4	gradi	NOM	grado	O	O
96	5	grazie	NOM	grazia	O	O

97	1	alza	VER:pres	alzare	O	O
97	2	vedere	VER:infi	vedere	Increase_position_on_a_scale	B-LU
97	3	raiuno	NOM	raiuno	Increase_position_on_a_scale	B-Value

98	1	alza	VER:pres	alzare	Increase_value_on_range	B-LU
98	2	temperatura	NOM	temperatura	Increase_value_on_range	B-Property
98	3	di	PRE	di	Increase_value_on_range	B-Value
98	4	due	ADJ	due	Increase_value_on_range	I-Device
98	5	gradi	NOM	grado	Increase_value_on_range	I-Value
98	6	del	PRE:det	del	O	O
98	7	soggiorno	NOM	soggiorno	Increase_value_on_range	B-Place

99	1	apri	VER:pres	aprire	Set_value_on_a_range	B-LU
99	2	la	DET:def	il	O	O
99	3	temperatura	NOM	temperatura	Set_value_on_a_range	B-Property
99	4	a	PRE	a	O	O
99	5	venti	ADJ	venti	Set_value_on_a_range	I-Device
99	6	gradi	NOM	grado	Set_value_on_a_range	I-Value

100	1	lavoro	NOM	lavoro	Check_status	B-LU
100	2	due	ADJ	due	Check_status	I-Device
100	3	ore	NOM	ora	O	O

101	1	attiva	ADJ	attivo	Put_into_operation	B-LU
101	2	solleva	VER:pres	sollevare	O	O
101	3	un	DET:indef	un	Put_into_operation	B-Value
101	4	a	PRE	a	O	O
101	5	venti	ADJ	venti	Put_into_operation	I-Device
101	6	gradi	NOM	grado	Put_into_operation	I-Value

102	1	alza	VER:pres	alzare	Cause_to_open	B-LU
102	2	il	DET:def	il	O	O
102	3	esegui	VER:pres	eseguire	O	O
102	4	al	PRE:det	al	Cause_to_open	I-Place

103	1	alza	VER:pres	alzare	Increase_position_on_a_scale	B-LU
103	2	la	DET:def	il	O	O
103	3	ventola	NOM	ventola	Increase_position_on_a_scale	B-Device

104	1	attiva	VER:pres	attivare	Contacting	B-LU
104	2	l	VER:impe	l	O	O
104	3	′	PON	′	O	O
104	4	armadio	NOM	armadio	Contacting	I-Device

105	1	alza	VER:pres	alzare	Cause_to_open	B-LU
105	2	persiana	ADJ	persiano	O	O

106	1	chiudi	VER:pres	chiudere	Terminate_communication	B-LU
106	2	la	DET:def	il	O	O
106	3	temperatura	NOM	temperatura	Terminate_communication	B-Property

107	1	vorrei	VER:cond	volere	O	O

108	1	vorrei	VER:cond	volere	O	O
108	2	chiamare	VER:infi	chiamare	Contacting	B-LU

109	1	apri	VER:pres	aprire	Cause_to_open	B-LU
109	2	la	DET:def	il	O	O
109	3	comando	NOM	comando	Cause_to_open	B-Device

110	1	attiva	ADJ	attivo	Put_into_operation	B-LU
110	2	telefono	NOM	telefono	Put_into_operation	B-Device

111	1	attiva	VER:pres	attivare	Put_into_operation	B-LU
111	2	il	DET:def	il	O	O
111	3	riscaldamento	NOM	riscaldamento	Put_into_operation	B-Device

112	1	aria	NOM	aria	Put_into_operation	B-LU
112	2	condizionata	VER:pper	condizionare	Put_into_operation	I-Device
112	3	in	PRE	in	O	O
112	4	camera	NOM	camera	Put_into_operation	B-Place

113	1	chiudi	VER:pres	chiudere	Cause_to_close	B-LU
113	2	la	DET:def	il	O	O
113	3	porta	NOM	porta	Cause_to_close	B-Device
113	4	del	PRE:det	del	O	O
113	5	bagno	NOM	bagno	Cause_to_close	B-Place

114	1	corridoio	NOM	corridoio	Check_status	B-Place

115	1	apri	VER:pres	aprire	Cause_to_open	B-LU
115	2	la	DET:def	il	O	O
115	3	porta	NOM	porta	Cause_to_open	B-Device
115	4	del	PRE:det	del	Cause_to_open	I-Device
115	5	balcone	NOM	balcone	Cause_to_open	I-Device
115	6	la	PRO:pers	la	Cause_to_open	I-Place

116	1	apri	VER:pres	aprire	Cause_to_open	B-LU
116	2	vista	VER:pper	vedere	O	O
116	3	dall	NOM	dall	O	O
116	4	′	PON	′	O	O
116	5	esterno	NOM	esterno	Cause_to_open	B-Device
116	6	in	PRE	in	O	O
116	7	bagno	NOM	bagno	Cause_to_open	B-Place

117	1	apri	VER:pres	aprire	Cause_to_open	B-LU
117	2	la	DET:def	il	O	O
117	3	porta	NOM	porta	Cause_to_open	B-Device
117	4	della	PRE:det	del	O	O
117	5	camera	NOM	camera	Cause_to_open	B-Place
117	6	da	PRE	da	Cause_to_open	I-Place
117	7	le	DET:def	il	O	O
117	8	luci	NOM	luce	Cause_to_open	B-Device
117	9	serrande	NOM	serranda	Cause_to_open	I-Device

118	1	chiudi	VER:pres	chiudere	Cause_to_close	B-LU
118	2	dell	NOM	dell	O	O
118	3	′	PON	′	O	O
118	4	angolo	NOM	angolo	Cause_to_close	B-Place
118	5	cottura	NOM	cottura	Cause_to_close	I-Place
118	6	phon	NOM	phon	Cause_to_close	I-Device

119	1	chiudi	VER:pres	chiudere	Cause_to_close	B-LU
119	2	la	DET:def	il	O	O
119	3	ventola	NOM	ventola	Cause_to_close	B-Device
119	4	dell	NOM	dell	O	O
119	5	′	PON	′	O	O
119	6	angolo	NOM	angolo	Cause_to_close	I-Device
119	7	ingresso	NOM	ingresso	Cause_to_close	I-Device

120	1	chiamare	VER:infi	chiamare	Contacting	B-LU
120	2	grazie	NOM	grazia	O	O

121	1	apri	VER:pres	aprire	Cause_to_open	B-LU
121	2	la	DET:def	il	O	O
121	3	porta	NOM	porta	Cause_to_open	B-Device
121	4	per	PRE	per	O	O
121	5	favore	NOM	favore	O	O
121	6	ingresso	NOM	ingresso	Cause_to_open	I-Device

122	1	fai	VER:pres	fare	O	O
122	2	entrare	VER:infi	entrare	Contacting	B-LU
122	3	radiouno	NOM	radiouno	O	O

123	1	chiama	VER:pres	chiamare	Contacting	B-LU
123	2	regolare	VER:infi	regolare	Contacting	I-LU
123	3	il	DET:def	il	O	O

124	1	attiva	VER:pres	attivare	Contacting	B-LU
124	2	del	PRE:det	del	O	O
124	3	piano	NOM	piano	Contacting	I-Device

125	1	attiva	VER:pres	attivare	Contacting	B-LU
125	2	della	PRE:det	del	O	O
125	3	velux	NOM	velux	Contacting	I-Device

126	1	apri	VER:pres	aprire	Cause_to_open	B-LU
126	2	le	DET:def	il	O	O
126	3	tapparelle	NOM	tapparella	Cause_to_open	B-Device
126	4	telefono	NOM	telefono	Cause_to_open	I-Device

127	1	chiudi	VER:pres	chiudere	Terminate_communication	B-LU
127	2	la	DET:def	il	O	O
127	3	sopra	ADV	sopra	Terminate_communication	B-Device
127	4	il	DET:def	il	Terminate_communication	I-Device
127	5	fornello	NOM	fornello	O	O
127	6	dell	NOM	dell	O	O
127	7	′	PON	′	O	O
127	8	armadio	NOM	armadio	Terminate_communication	I-Device

128	1	chiudi	VER:pres	chiudere	Terminate_communication	B-LU
128	2	la	DET:def	il	O	O
128	3	guida	NOM	guida	Terminate_communication	B-Device
128	4	programmi	NOM	programma	O	O
128	5	le	DET:def	il	Terminate_communication	I-Device
128	6	luci	NOM	luce	Terminate_communication	I-Device

129	1	alza	VER:pres	alzare	Increase_value_on_range	B-LU
129	2	la	DET:def	il	O	O
129	3	tv	NOM	tv	Increase_value_on_range	B-Device

130	1	vorrei	VER:cond	volere	O	O
130	2	radiatore	NOM	radiatore	Check_status	I-Device

131	1	rispondi	VER:pres	rispondere	Accept_Communication	B-LU
131	2	al	PRE:det	al	O	O
131	3	corridoio	NOM	corridoio	Accept_Communication	I-Place

132	1	chiudi	VER:pres	chiudere	Terminate_communication	B-LU
132	2	la	DET:def	il	O	O
132	3	rinfresca	VER:pres	rinfrescare	O	O
132	4	telefono	NOM	telefono	Terminate_communication	B-Device

133	1	attiva	VER:pres	attivare	Contacting	B-LU
133	2	il	DET:def	il	O	O
133	3	televisore	NOM	televisore	Contacting	B-Device
133	4	e	CON	e	O	O

134	1	apri	VER:pres	aprire	Put_into_operation	B-LU
134	2	la	DET:def	il	O	O
134	3	luce	NOM	luce	Put_into_operation	B-Device
134	4	potresti	VER:cond	potere	Put_into_operation	I-Device

135	1	ventilatore	NOM	ventilatore	O	O

136	1	chiudi	VER:pres	chiudere	Terminate_communication	B-LU
136	2	la	DET:def	il	O	O
136	3	il	DET:def	il	O	O
136	4	condizionatore	NOM	condizionatore	Terminate_communication	B-Device

137	1	attiva	VER:pres	attivare	Contacting	B-LU
137	2	il	DET:def	il	O	O
137	3	volume	NOM	volume	Contacting	B-Property

138	1	fai	VER:pres	fare	Contacting	B-LU
138	2	esterno	ADJ	esterno	Contacting	B-LU
138	3	stasera	ADV	stasera	Contacting	I-Communication

139	1	attiva	VER:pres	attivare	Contacting	B-LU
139	2	in	PRE	in	O	O
139	3	camera	NOM	camera	Contacting	B-Place

140	1	attiva	VER:pres	attivare	Contacting	B-LU
140	2	il	DET:def	il	O	O
140	3	lettore	NOM	lettore	Contacting	B-Device
140	4	porta	VER:pres	portare	Contacting	B-LU
140	5	qui	ADV	qui	Contacting	B-Place

141	1	attiva	VER:pres	attivare	Contacting	B-LU
141	2	lo	DET:def	il	O	O
141	3	persiane	NOM	persiana|persiano	Contacting	B-Device

142	1	apri	NOM	apro	Cause_to_open	B-LU
142	2	persiane	ADJ	persiano	Cause_to_open	I-Device

143	1	attiva	ADJ	attivo	Put_into_operation	B-LU
143	2	telefono	NOM	telefono	Put_into_operation	B-Device

144	1	attiva	VER:pres	attivare	Put_into_operation	B-LU
144	2	il	DET:def	il	O	O
144	3	volume	NOM	volume	Put_into_operation	B-Property
144	4	della	PRE:det	del	O	O
144	5	tv	NOM	tv	Put_into_operation	B-Device
144	6	e	CON	e	O	O

145	1	attiva	VER:pres	attivare	Contacting	B-LU
145	2	stasera	ADV	stasera	Contacting	I-Communication

146	1	chiudi	VER:pres	chiudere	Cause_to_close	B-LU
146	2	la	DET:def	il	O	O
146	3	porta	NOM	porta	Cause_to_close	B-Device
146	4	della	PRE:det	del	Cause_to_close	I-Device
146	5	radio	NOM	radio	Cause_to_close	I-Device

147	1	attiva	ADJ	attivo	Put_into_operation	B-LU
147	2	ventilazione	NOM	ventilazione	Put_into_operation	B-Device

148	1	attiva	ADJ	attivo	Put_into_operation	B-LU
148	2	sala	NOM	sala	Put_into_operation	B-Place

149	1	attiva	ADJ	attivo	Decrease_value_on_a_range	B-LU
149	2	socchiudi	VER:pres	socchiudere	Decrease_value_on_a_range	B-Value
149	3	la	DET:def	il	O	O
149	4	porta	NOM	porta	Decrease_value_on_a_range	B-Device

150	1	fai	VER:pres	fare	O	O
150	2	partire	VER:infi	partire	Contacting	B-LU
150	3	corridoio	NOM	corridoio	Contacting	B-Place

151	1	attiva	VER:pres	attivare	Contacting	B-LU
151	2	cellulare	ADJ	cellulare	Contacting	B-Device

152	1	attiva	VER:pres	attivare	Contacting	B-LU
152	2	lo	DET:def	il	O	O
152	3	squillare	VER:infi	squillare	O	O

153	1	fammi	VER:impe	fare	O	O
153	2	vedere	VER:infi	vedere	Cause_to_open	B-LU
153	3	la	DET:def	il	O	O
153	4	porta	ADJ	porta|porto	Cause_to_open	B-Device
153	5	dell	NOM	dell	Cause_to_open	I-Device
153	6	′	PON	′	Cause_to_open	I-Device
153	7	appartamento	NOM	appartamento	Cause_to_open	I-Device

154	1	radiatore	NOM	radiatore	O	O

155	1	di	PRE	di	O	O
155	2	aprire	VER:infi	aprire	Check_status	B-LU
155	3	in	PRE	in	O	O
155	4	soggiorno	NOM	soggiorno	Check_status	B-Place

156	1	fai	VER:pres	fare	O	O
156	2	partire	VER:infi	partire	Contacting	B-LU

157	1	accendi	VER:pres	accendere	Put_into_operation	B-LU
157	2	la	DET:def	il	O	O
157	3	luce	NOM	luce	Put_into_operation	B-Device

158	1	chiudi	VER:pres	chiudere	Cause_to_close	B-LU
158	2	la	DET:def	il	O	O
158	3	porta	NOM	porta	Cause_to_close	B-Device
158	4	del	PRE:det	del	Cause_to_close	I-Device

159	1	della	PRE:det	del	O	O

160	1	chiudi	VER:pres	chiudere	Cause_to_close	B-LU
160	2	la	DET:def	il	O	O
160	3	porta	NOM	porta	Cause_to_close	B-Device
160	4	della	PRE:det	del	Cause_to_close	I-Device

161	1	chiudi	VER:pres	chiudere	Terminate_communication	B-LU
161	2	la	DET:def	il	O	O
161	3	temperatura	NOM	temperatura	Terminate_communication	B-Property
161	4	di	PRE	di	O	O

162	1	chiudi	VER:pres	chiudere	Terminate_communication	B-LU
162	2	la	DET:def	il	O	O
162	3	termostato	NOM	termostato	Terminate_communication	B-Device

163	1	chiudi	VER:pres	chiudere	Cause_to_close	B-LU
163	2	la	DET:def	il	O	O
163	3	porta	NOM	porta	Cause_to_close	B-Device
163	4	del	PRE:det	del	O	O
163	5	bagno	NOM	bagno	Cause_to_close	B-Place

164	1	telefono	NOM	telefono	O	O

165	1	chiudi	VER:pres	chiudere	Terminate_communication	B-LU
165	2	la	DET:def	il	O	O
165	3	temperatura	NOM	temperatura	Terminate_communication	B-Property
165	4	a	PRE	a	O	O
165	5	venti	NOM	venti|vento	Terminate_communication	I-Device

166	1	chiudi	VER:pres	chiudere	Cause_to_close	B-LU
166	2	la	DET:def	il	O	O
166	3	porta	NOM	porta	Cause_to_close	B-Device

167	1	chiama	VER:pres	chiamare	Put_into_operation	B-LU
167	2	telefono	NOM	telefono	Put_into_operation	B-Device

168	1	chiudi	VER:pres	chiudere	Cause_to_close	B-LU
168	2	la	DET:def	il	O	O
168	3	porta	NOM	porta	Cause_to_close	B-Device
168	4	voglio	VER:pres	volere	O	O
168	5	girare	VER:infi	girare	O	O

169	1	attiva	VER:pres	attivare	Contacting	B-LU
169	2	il	DET:def	il	O	O
169	3	volume	NOM	volume	Contacting	B-Property
169	4	della	PRE:det	del	O	O

170	1	chiudi	VER:pres	chiudere	Cause_to_close	B-LU
170	2	la	DET:def	il	O	O
170	3	porta	NOM	porta	Cause_to_close	B-Device
170	4	della	PRE:det	del	O	O
170	5	cucina	NOM	cucina	Cause_to_close	B-Place

171	1	stasera	ADV	stasera	O	O
171	2	fornello	NOM	fornello	Contacting	I-Device

172	1	chiudi	VER:pres	chiudere	Cause_to_close	B-LU
172	2	la	DET:def	il	O	O
172	3	porta	NOM	porta	Cause_to_close	B-Device
172	4	della	PRE:det	del	O	O
172	5	televisione	NOM	televisione	Cause_to_close	B-Device

173	1	chiudi	VER:pres	chiudere	Cause_to_close	B-LU
173	2	la	DET:def	il	O	O
173	3	finestra	NOM	finestra	Cause_to_close	B-Device

174	1	chiudi	VER:pres	chiudere	Cause_to_close	B-LU
174	2	la	DET:def	il	O	O
174	3	porta	NOM	porta	Cause_to_close	B-Device
174	4	musica	ADJ	musico	O	O
174	5	comando	NOM	comando	O	O

175	1	chiudi	VER:pres	chiudere	Cause_to_close	B-LU
175	2	la	DET:def	il	O	O
175	3	porta	ADJ	porta|porto	Cause_to_close	B-Device
175	4	finestra	NOM	finestra	Cause_to_close	B-Device

176	1	telefono	NOM	telefono	O	O
176	2	in	PRE	in	O	O
176	3	soggiorno	NOM	soggiorno	Check_status	B-Place

177	1	chiudi	VER:pres	chiudere	Terminate_communication	B-LU
177	2	la	DET:def	il	O	O
177	3	temperatura	NOM	temperatura	Terminate_communication	B-Property

178	1	chiudi	VER:pres	chiudere	Terminate_communication	B-LU
178	2	la	DET:def	il	O	O
178	3	lampada	NOM	lampada	Terminate_communication	B-Device
178	4	qui	ADV	qui	O	O

179	1	chiamando	VER:geru	chiamare	O	O

180	1	chiudi	VER:pres	chiudere	Terminate_communication	B-LU
180	2	porte	VER:pper	porgere	O	O

181	1	cellulare	ADJ	cellulare	O	O

182	1	chiudi	VER:pres	chiudere	Cause_to_close	B-LU
182	2	la	DET:def	il	O	O
182	3	porta	NOM	porta	Cause_to_close	B-Device
182	4	del	PRE:det	del	O	O
182	5	corridoio	NOM	corridoio	Cause_to_close	B-Place

183	1	chiudi	VER:pres	chiudere	Terminate_communication	B-LU
183	2	per	PRE	per	O	O
183	3	favore	NOM	favore	O	O

184	1	fai	VER:pres	fare	O	O
184	2	entrare	VER:infi	entrare	Put_into_operation	B-LU
184	3	piu	NOM	piu	O	O
184	4	′	PON	′	O	O
184	5	luce	ADJ	luce	Put_into_operation	B-Device
184	6	cucina	NOM	cucina	Put_into_operation	B-Place

185	1	fai	VER:pres	fare	O	O
185	2	partire	VER:infi	partire	Contacting	B-LU
185	3	bagni	NOM	bagno	Contacting	B-Place

186	1	fai	VER:pres	fare	O	O
186	2	partire	VER:infi	partire	Put_into_operation	B-LU
186	3	ventilatore	ADJ	ventilatore	O	O
186	4	ventola	NOM	ventola	Put_into_operation	B-Device
186	5	stereo	ADJ	stereo	Put_into_operation	B-Device
186	6	trenta	ADJ	trenta	Put_into_operation	I-Device
186	7	minuti	NOM	minuto	O	O

187	1	mantieni	VER:pres	mantenere	Set_value_on_a_range	B-LU
187	2	temperatura	NOM	temperatura	Set_value_on_a_range	B-Property

188	1	apri	NOM	apro	Cause_to_open	B-LU
188	2	telefonino	VER:cpre	telefonare	O	O

189	1	voglio	VER:pres	volere	O	O
189	2	vedere	VER:infi	vedere	Set_value_on_a_range	B-LU
189	3	condizionata	VER:pper	condizionare	O	O
189	4	a	PRE	a	O	O
189	5	diciannove	ADJ	diciannove	Set_value_on_a_range	I-Device
189	6	gradi	NOM	grado	Set_value_on_a_range	I-Value
189	7	da	PRE	da	O	O
189	8	sul	PRE:det	sul	Set_value_on_a_range	I-Place

190	1	fornello	NOM	fornello	O	O

191	1	passa	ADJ	passo	O	O
191	2	dell	NOM	dell	O	O
191	3	′	PON	′	O	O
191	4	angolo	NOM	angolo	Cause_to_open	B-Device
191	5	rispondi	VER:pres	rispondere	Cause_to_open	B-LU
191	6	al	PRE:det	al	O	O
191	7	su	ADV	su	O	O

192	1	abbassa	VER:pres	abbassare	Cause_to_close	B-LU
192	2	la	DET:def	il	O	O
192	3	lavello	NOM	lavello	Cause_to_close	B-Device

193	1	fammi	VER:impe	fare	O	O
193	2	vedere	VER:infi	vedere	Put_into_operation	B-LU
193	3	ingresso	NOM	ingresso	Put_into_operation	I-Device

194	1	ventilazione	NOM	ventilazione	O	O
194	2	alzare	VER:infi	alzare	Cause_to_close	B-LU
194	3	la	DET:def	il	O	O
194	4	porta	NOM	porta	Cause_to_close	B-Device
194	5	chiudi	VER:pres	chiudere	Cause_to_close	B-LU
194	6	la	DET:def	il	O	O

195	1	imposta	NOM	imposta	O	O
195	2	configurazione	NOM	configurazione	O	O
195	3	da	PRE	da	Set_value_on_a_range	I-Place
195	4	letto	NOM	letto	Set_value_on_a_range	I-Place

196	1	imposta	NOM	imposta	O	O
196	2	il	DET:def	il	O	O
196	3	telefono	NOM	telefono	Set_value_on_a_scale	B-Device
196	4	in	PRE	in	O	O
196	5	modalita	NOM	modalita	O	O
196	6	′	PON	′	O	O
196	7	silenziosa	ADJ	silenzioso	Set_value_on_a_scale	I-Device
196	8	chiama	NOM	chiama	O	O

197	1	imposta	NOM	imposta	O	O
197	2	regolare	ADJ	regolare	O	O
197	3	condizionata	ADJ	condizionato	O	O
197	4	spalanca	VER:pres	spalancare	O	O
197	5	due	ADJ	due	O	O
197	6	ore	NOM	ora	O	O

198	1	imposta	NOM	imposta	O	O
198	2	la	DET:def	il	O	O
198	3	temperatura	NOM	temperatura	Set_value_on_a_range	B-Property
198	4	gradi	NOM	grado	Set_value_on_a_range	I-Value

199	1	imposta	NOM	imposta	O	O
199	2	ventola	NOM	ventola	Check_status	I-Device

200	1	in	PRE	in	O	O
200	2	questa	PRO:demo	questo	O	O
200	3	lampadina	NOM	lampadina	Check_status	B-Device

201	1	del	PRE:det	del	O	O
201	2	salotto	NOM	salotto	Check_status	B-Place

202	1	mantieni	VER:pres	mantenere	Set_value_on_a_range	B-LU
202	2	aperta	VER:pper	aprire	O	O
202	3	la	DET:def	il	O	O
202	4	porta	NOM	porta	Set_value_on_a_range	B-Device
202	5	del	PRE:det	del	Set_value_on_a_range	I-Device
202	6	telefono	NOM	telefono	Set_value_on_a_range	I-Device

203	1	la	DET:def	il	O	O
203	2	temperatura	NOM	temperatura	Cause_to_close	B-Property
203	3	chiudi	VER:pres	chiudere	Cause_to_close	B-LU
203	4	la	DET:def	il	O	O
203	5	porta	NOM	porta	Cause_to_close	B-Device

204	1	la	DET:def	il	O	O
204	2	temperatura	NOM	temperatura	Cause_to_open	B-Property
204	3	a	PRE	a	O	O
204	4	venti	ADJ	venti	Cause_to_open	I-Device
204	5	gradi	NOM	grado	O	O
204	6	tira	VER:pres	tirare	O	O

205	1	mantieni	VER:pres	mantenere	Set_value_on_a_range	B-LU
205	2	temperatura	NOM	temperatura	Set_value_on_a_range	B-Property
205	3	a	PRE	a	O	O
205	4	venti	ADJ	venti	Set_value_on_a_range	I-Device
205	5	gradi	NOM	grado	O	O
205	6	sala	NOM	sala	Set_value_on_a_range	B-Place

206	1	della	PRE:det	del	O	O
206	2	veranda	NOM	veranda	Check_status	I-Device

207	1	per	PRE	per	O	O
207	2	favore	NOM	favore	O	O
207	3	chiudi	VER:pres	chiudere	Cause_to_close	B-LU
207	4	la	DET:def	il	O	O
207	5	porta	NOM	porta	Cause_to_close	B-Device

208	1	lasciami	VER:impe	lasciare	Check_status	B-LU
208	2	si	PRO:pers	si	Check_status	I-Place

209	1	metti	VER:pres	mettere	Set_value_on_a_range	B-LU
209	2	lavello	NOM	lavello	O	O

210	1	sapone	NOM	sapone	O	O
210	2	aumentare	VER:infi	aumentare	O	O

211	1	metti	VER:pres	mettere	Set_value_on_a_range	B-LU
211	2	su	PRE	su	O	O
211	3	raitre	NOM	raitre	Set_value_on_a_range	B-Value
211	4	italiauno	ADJ	italiauno	Set_value_on_a_range	I-Device

212	1	metti	VER:pres	mettere	Set_value_on_a_range	B-LU
212	2	su	PRE	su	O	O
212	3	raiuno	ADJ	raiuno	Set_value_on_a_range	B-Value
212	4	veranda	NOM	veranda	O	O

213	1	metti	VER:pres	mettere	Set_value_on_a_range	B-LU
213	2	su	PRE	su	O	O
213	3	raiuno	ADJ	raiuno	Set_value_on_a_range	B-Value
213	4	verifica	NOM	verifica	O	O

214	1	telecamera	NOM	telecamera	Check_status	B-LU
214	2	ora	ADV	ora	O	O
214	3	favore	NOM	favore	O	O

215	1	metti	VER:pres	mettere	Cause_to_open	B-LU
215	2	su	PRE	su	O	O
215	3	della	PRE:det	del	O	O

216	1	precedente	ADJ	precedente	O	O
216	2	registra	VER:pres	registrare	O	O
216	3	questo	PRO:demo	questo	O	O
216	4	programma	NOM	programma	O	O

217	1	luce	ADJ	luce	Decrease_value_on_a_range	B-Device
217	2	all	NOM	all	Decrease_value_on_a_range	I-Device
217	3	′	PON	′	O	O
217	4	phone	NOM	phone	Decrease_value_on_a_range	I-Device

218	1	passa	VER:pres	passare	Set_value_on_a_range	B-LU
218	2	al	PRE:det	al	O	O
218	3	digitale	NOM	digitale	Set_value_on_a_range	B-Device
218	4	terrestre	ADJ	terrestre	O	O
218	5	cucina	NOM	cucina	Set_value_on_a_range	B-Place

219	1	per	PRE	per	O	O
219	2	cortesia	NOM	cortesia	O	O
219	3	spegni	VER:pres	spegnare|spegnere	Put_out_of_operation	B-LU
219	4	la	DET:def	il	O	O
219	5	luce	NOM	luce	Put_out_of_operation	B-Device
219	6	soffusa	ADJ	soffuso	Put_out_of_operation	B-Value

220	1	lavello	NOM	lavello	Terminate_communication	B-LU
220	2	poi	ADV	poi	O	O
220	3	chiudi	VER:pres	chiudere	Terminate_communication	B-LU
220	4	la	DET:def	il	O	O

221	1	per	PRE	per	O	O
221	2	favore	NOM	favore	O	O
221	3	spegni	VER:pres	spegnare|spegnere	Put_out_of_operation	B-LU
221	4	il	DET:def	il	O	O
221	5	termoconvettore	NOM	termoconvettore	Put_out_of_operation	B-Device
221	6	chiudi	VER:pres	chiudere	Put_out_of_operation	B-LU
221	7	la	DET:def	il	O	O
221	8	luce	NOM	luce	Put_out_of_operation	B-Device

222	1	per	PRE	per	O	O
222	2	favore	NOM	favore	O	O
222	3	spegni	VER:pres	spegnare|spegnere	Put_out_of_operation	B-LU
222	4	la	DET:def	il	O	O
222	5	televisione	NOM	televisione	Put_out_of_operation	B-Device
222	6	disattiva	VER:pres	disattivare	O	O

223	1	per	PRE	per	O	O
223	2	piacere	VER:infi	piacere	O	O
223	3	apri	NOM	apro	O	O
223	4	la	DET:def	il	O	O
223	5	porta	NOM	porta	Cause_to_open	B-Device
223	6	del	PRE:det	del	Cause_to_open	I-Device
223	7	poggiolo	NOM	poggiolo	Cause_to_open	B-Place
223	8	cucina	NOM	cucina	Cause_to_open	B-Place

224	1	in	PRE	in	O	O
224	2	camera	NOM	camera	Set_value_on_a_range	B-Place
224	3	da	PRE	da	Set_value_on_a_range	I-Place
224	4	letto	NOM	letto	Set_value_on_a_range	I-Place

225	1	potresti	VER:cond	potere	O	O
225	2	e	CON	e	O	O
225	3	′	PON	′	O	O
225	4	ora	ADV	ora	O	O
225	5	sono	VER:pres	essere|sonare	Check_status	B-LU
225	6	della	PRE:det	del	O	O
225	7	camera	NOM	camera	Check_status	B-Place

226	1	apri	VER:pres	aprire	Cause_to_open	B-LU
226	2	gradi	NOM	grado	Cause_to_open	I-Value

227	1	della	PRE:det	del	O	O
227	2	radio	NOM	radio	Check_status	I-Device

228	1	per	PRE	per	O	O
228	2	del	PRE:det	del	O	O
228	3	salotto	NOM	salotto	Check_status	B-Place

229	1	registra	VER:pres	registrare	Check_status	B-LU

230	1	registra	VER:pres	registrare	Check_status	B-LU
230	2	questo	PRO:demo	questo	O	O
230	3	programma	NOM	programma	O	O
230	4	qui	ADV	qui	Check_status	B-Place
230	5	alla	PRE:det	al	O	O

231	1	regola	NOM	regola	Check_status	B-LU
231	2	condizionatore	NOM	condizionatore	Check_status	I-Device

232	1	nel	PRE:det	nel	O	O
232	2	corridoio	NOM	corridoio	Check_status	B-Place

233	1	regola	NOM	regola	Check_status	B-LU
233	2	temperatura	NOM	temperatura	Check_status	B-Property
233	3	a	PRE	a	O	O
233	4	venti	ADJ	venti	Check_status	I-Device
233	5	abatjour	NOM	abatjour	O	O
233	6	dvd	NOM	dvd	Check_status	I-Device

234	1	regola	VER:pres	regolare	Check_status	B-LU
234	2	la	DET:def	il	O	O
234	3	temperatura	NOM	temperatura	Check_status	B-Property
234	4	di	PRE	di	O	O
234	5	modalita	NOM	modalita	Check_status	I-Device
234	6	′	PON	′	O	O
234	7	silenziosa	ADJ	silenzioso	Check_status	I-Device

235	1	decoder	VER:infi	decoder	Put_into_operation	B-LU
235	2	cottura	NOM	cottura	O	O
235	3	radiatore	NOM	radiatore	Put_into_operation	I-Device

236	1	rispondi	VER:pres	rispondere	Put_out_of_operation	B-LU
236	2	al	PRE:det	al	O	O
236	3	minimo	NOM	minimo	Put_out_of_operation	B-Value
236	4	si	PRO:refl	si	O	O
236	5	spenga	VER:cpre	spegnere|spengere	Put_out_of_operation	B-LU
236	6	tra	PRE	tra	Put_out_of_operation	B-Time

237	1	rispondi	VER:pres	rispondere	Accept_Communication	B-LU
237	2	al	PRE:det	al	O	O
237	3	cellulare	ADJ	cellulare	Accept_Communication	B-Device

238	1	chiudi	VER:pres	chiudere	Terminate_communication	B-LU
238	2	questo	PRO:demo	questo	O	O

239	1	rispondi	VER:pres	rispondere	Accept_Communication	B-LU
239	2	al	PRE:det	al	O	O
239	3	telefonino	VER:impe	telefonare	O	O

240	1	rispondi	VER:pres	rispondere	Accept_Communication	B-LU
240	2	al	PRE:det	al	O	O
240	3	citofono	NOM	citofono	Accept_Communication	B-Device
240	4	mia	PRO:poss	mio	O	O

241	1	apri	VER:pres	aprire	Cause_to_open	B-LU
241	2	la	DET:def	il	O	O
241	3	tapparella	NOM	tapparella	Cause_to_open	B-Device

242	1	chiudi	VER:pres	chiudere	Cause_to_close	B-LU
242	2	la	DET:def	il	O	O
242	3	corridoio	NOM	corridoio	Cause_to_close	B-Place

243	1	metti	VER:pres	mettere	Cause_to_open	B-LU
243	2	su	PRE	su	O	O
243	3	veranda	NOM	veranda	Cause_to_open	B-Value

244	1	sblocca	VER:impe	sbloccare	Contacting	B-LU
244	2	mia	PRO:poss	mio	O	O
244	3	sorella	NOM	sorella	Contacting	B-Addressee

245	1	sms	NOM	sms	O	O
245	2	sono	VER:pres	essere|sonare	Contacting	B-Communication
245	3	impegnato	VER:pper	impegnare	Contacting	I-Communication
245	4	stasera	ADV	stasera	Contacting	I-Communication
245	5	chiamata	VER:pper	chiamare	O	O

246	1	chiudi	VER:pres	chiudere	Cause_to_close	B-LU
246	2	la	DET:def	il	O	O
246	3	porta	NOM	porta	Cause_to_close	B-Device

247	1	spegni	VER:pres	spegnare|spegnere	Put_out_of_operation	B-LU
247	2	le	DET:def	il	O	O
247	3	soffusa	ADJ	soffuso	O	O
247	4	corridoio	NOM	corridoio	Put_out_of_operation	B-Place
247	5	se	CON	se	O	O
247	6	sono	VER:pres	essere|sonare	O	O
247	7	accese	VER:pper	accendere	Put_out_of_operation	I-LU

248	1	spegni	VER:pres	spegnare|spegnere	Put_out_of_operation	B-LU
248	2	il	DET:def	il	O	O
248	3	volume	NOM	volume	Put_out_of_operation	B-Property

249	1	spegni	VER:pres	spegnare|spegnere	Put_out_of_operation	B-LU
249	2	il	DET:def	il	O	O
249	3	computer	NOM	computer	Put_out_of_operation	B-Device
249	4	grazie	NOM	grazia	O	O
249	5	tavolo	NOM	tavolo	Put_out_of_operation	I-Device

250	1	spegni	VER:pres	spegnare|spegnere	Put_out_of_operation	B-LU
250	2	il	DET:def	il	O	O
250	3	condizionatore	NOM	condizionatore	Put_out_of_operation	B-Device

251	1	temperatura	NOM	temperatura	Decrease_value_on_a_range	B-Property
251	2	la	DET:def	il	O	O
251	3	luce	NOM	luce	Decrease_value_on_a_range	B-Device

252	1	spegni	VER:pres	spegnare|spegnere	Terminate_communication	B-LU
252	2	chiudi	VER:impe	chiudere	Terminate_communication	I-LU
252	3	la	DET:def	il	O	O

253	1	alza	VER:pres	alzare	Cause_to_open	B-LU
253	2	telefonino	VER:cpre	telefonare	O	O

254	1	spegni	VER:pres	spegnare|spegnere	Put_out_of_operation	B-LU
254	2	il	DET:def	il	O	O
254	3	controllo	NOM	controllo	Put_out_of_operation	B-Device
254	4	tv	NOM	tv	Put_out_of_operation	B-Device
254	5	e	CON	e	O	O
254	6	accendi	VER:impe	accendere	O	O

255	1	chiudi	VER:pres	chiudere	Terminate_communication	B-LU
255	2	la	DET:def	il	O	O
255	3	videocitofono	NOM	videocitofono	Terminate_communication	B-Device

256	1	chiudi	VER:pres	chiudere	Terminate_communication	B-LU
256	2	la	DET:def	il	O	O
256	3	lampada	NOM	lampada	Terminate_communication	B-Device
256	4	lo	DET:def	il	Terminate_communication	I-Device
256	5	stereo	NOM	stereo	Terminate_communication	B-Device

257	1	spegni	VER:pres	spegnare|spegnere	Put_out_of_operation	B-LU
257	2	il	DET:def	il	O	O
257	3	phon	NOM	phon	Put_out_of_operation	B-Device
257	4	vivavoce	ADJ	vivavoce	Put_out_of_operation	I-Device

258	1	spegni	VER:pres	spegnare|spegnere	Put_out_of_operation	B-LU
258	2	la	DET:def	il	O	O
258	3	luce	NOM	luce	Put_out_of_operation	B-Device
258	4	del	PRE:det	del	Put_out_of_operation	I-Device

259	1	spegni	VER:pres	spegnare|spegnere	Put_out_of_operation	B-LU
259	2	il	DET:def	il	O	O
259	3	ricevitore	NOM	ricevitore	Put_out_of_operation	B-Device
259	4	la	PRO:pers	la	Put_out_of_operation	I-Device

260	1	spegneresti	VER:cond	spegnare|spegnere	Put_out_of_operation	B-LU
260	2	le	DET:def	il	O	O
260	3	luci	NOM	luce	Put_out_of_operation	B-Device
260	4	se	PRO:refl	se	O	O
260	5	sono	VER:pres	essere|sonare	O	O

261	1	spegni	VER:pres	spegnare|spegnere	Put_out_of_operation	B-LU
261	2	le	DET:def	il	O	O
261	3	tapparelle	NOM	tapparella	Put_out_of_operation	B-Device
261	4	abbassare	VER:infi	abbassare	O	O

262	1	spegni	VER:pres	spegnare|spegnere	Put_out_of_operation	B-LU
262	2	il	DET:def	il	O	O
262	3	riscaldamento	NOM	riscaldamento	Put_out_of_operation	B-Device
262	4	serrande	NOM	serranda	O	O
262	5	prova	NOM	prova	O	O

263	1	spegni	VER:pres	spegnare|spegnere	Put_out_of_operation	B-LU
263	2	dell	NOM	dell	O	O
263	3	′	PON	′	O	O
263	4	angolo	NOM	angolo	Put_out_of_operation	I-Device

264	1	spegni	VER:pres	spegnare|spegnere	Put_out_of_operation	B-LU
264	2	telefono	NOM	telefono	Put_out_of_operation	B-Device
264	3	della	PRE:det	del	O	O
264	4	camera	NOM	camera	Put_out_of_operation	B-Place

265	1	fammi	VER:impe	fare	O	O
265	2	vedere	VER:infi	vedere	Set_value_on_a_range	B-LU
265	3	raidue	ADJ	raidue	O	O

266	1	spegni	VER:pres	spegnare|spegnere	Put_out_of_operation	B-LU
266	2	la	DET:def	il	O	O
266	3	luce	NOM	luce	Put_out_of_operation	B-Device
266	4	uno	ADJ	uno	Put_out_of_operation	I-Device

267	1	rispondi	VER:pres	rispondere	Accept_Communication	B-LU
267	2	al	PRE:det	al	O	O
267	3	letto	NOM	letto	Accept_Communication	I-Device

268	1	spegni	VER:pres	spegnare|spegnere	Put_out_of_operation	B-LU
268	2	il	DET:def	il	O	O
268	3	della	PRE:det	del	O	O
268	4	ingresso	NOM	ingresso	Put_out_of_operation	I-Device

269	1	spegni	VER:pres	spegnare|spegnere	Put_out_of_operation	B-LU
269	2	la	DET:def	il	O	O

270	1	spegni	VER:pres	spegnare|spegnere	Put_out_of_operation	B-LU
270	2	la	DET:def	il	O	O
270	3	tapparella	NOM	tapparella	Put_out_of_operation	B-Device

271	1	tira	VER:impe	tirare	O	O
271	2	accenderesti	VER:cond	accendere	Put_into_operation	B-LU
271	3	la	DET:def	il	O	O
271	4	tv	NOM	tv	Put_into_operation	B-Device

272	1	spegni	VER:pres	spegnare|spegnere	Put_out_of_operation	B-LU
272	2	la	DET:def	il	O	O
272	3	lampada	NOM	lampada	Put_out_of_operation	B-Device
272	4	trenta	ADJ	trenta	Put_out_of_operation	I-Device
272	5	minuti	NOM	minuto	O	O
272	6	la	PRO:pers	la	O	O

273	1	spegni	VER:pres	spegnare|spegnere	Put_out_of_operation	B-LU
273	2	la	DET:def	il	O	O
273	3	lampada	NOM	lampada	Put_out_of_operation	B-Device
273	4	cambia	VER:pres	cambiare	Put_out_of_operation	I-Device

274	1	spegni	VER:pres	spegnare|spegnere	Put_out_of_operation	B-LU
274	2	il	DET:def	il	O	O
274	3	radiatore	NOM	radiatore	Put_out_of_operation	I-Device

275	1	chiudi	VER:pres	chiudere	Cause_to_close	B-LU
275	2	la	DET:def	il	O	O
275	3	ingresso	NOM	ingresso	Cause_to_close	B-Place
275	4	in	PRE	in	O	O
275	5	salotto	NOM	salotto	Cause_to_close	B-Place

276	1	spegni	VER:pres	spegnare|spegnere	Put_out_of_operation	B-LU
276	2	la	DET:def	il	O	O
276	3	lampada	NOM	lampada	Put_out_of_operation	B-Device
276	4	lavandino	NOM	lavandino	Put_out_of_operation	I-Device
276	5	cucina	NOM	cucina	Put_out_of_operation	B-Place

277	1	stasera	ADV	stasera	O	O
277	2	esterno	ADJ	esterno	Contacting	I-Device

278	1	spegni	VER:pres	spegnare|spegnere	Put_out_of_operation	B-LU
278	2	la	DET:def	il	O	O
278	3	lampada	NOM	lampada	Put_out_of_operation	B-Device
278	4	sul	PRE:det	sul	Put_out_of_operation	I-Device
278	5	tavolino	NOM	tavolino	Put_out_of_operation	B-Device
278	6	prendi	VER:pres	prendere	Put_out_of_operation	B-LU
278	7	la	DET:def	il	O	O
278	8	tapparella	NOM	tapparella	Put_out_of_operation	B-Device

279	1	spegni	VER:pres	spegnare|spegnere	Put_out_of_operation	B-LU
279	2	la	DET:def	il	O	O
279	3	lampada	NOM	lampada	Put_out_of_operation	B-Device

280	1	spegni	VER:pres	spegnare|spegnere	Put_out_of_operation	B-LU
280	2	la	DET:def	il	O	O
280	3	cucina	NOM	cucina	Put_out_of_operation	B-Place

281	1	spegni	VER:pres	spegnare|spegnere	Put_out_of_operation	B-LU
281	2	la	DET:def	il	O	O
281	3	luce	NOM	luce	Put_out_of_operation	B-Device
281	4	lasciami	VER:impe	lasciare	Put_out_of_operation	I-Device

282	1	spegni	VER:pres	spegnare|spegnere	Put_out_of_operation	B-LU
282	2	la	DET:def	il	O	O
282	3	luce	NOM	luce	Put_out_of_operation	B-Device
282	4	del	PRE:det	del	Put_out_of_operation	I-Device
282	5	lavello	NOM	lavello	Put_out_of_operation	I-Device

283	1	chiudi	VER:pres	chiudere	Decrease_value_on_a_range	B-LU
283	2	la	DET:def	il	O	O
283	3	luce	NOM	luce	Decrease_value_on_a_range	B-Device
283	4	della	PRE:det	del	O	O
283	5	camera	NOM	camera	Decrease_value_on_a_range	B-Place

284	1	terrestre	NOM	terrestre	O	O
284	2	sui	PRE:det	sul	Check_status	I-Device
284	3	comodini	NOM	comodino	Check_status	I-Device
284	4	lavoro	NOM	lavoro	Check_status	I-Device

285	1	spegni	VER:pres	spegnare|spegnere	Put_out_of_operation	B-LU
285	2	le	DET:def	il	O	O
285	3	luci	NOM	luce	Put_out_of_operation	B-Device
285	4	della	PRE:det	del	O	O
285	5	cucina	NOM	cucina	Put_out_of_operation	B-Place
285	6	lavello	NOM	lavello	O	O

286	1	chiudi	VER:pres	chiudere	Cause_to_close	B-LU
286	2	la	DET:def	il	O	O
286	3	porta	NOM	porta	Cause_to_close	B-Device
286	4	del	PRE:det	del	Cause_to_close	I-Device

287	1	spegni	VER:pres	spegnare|spegnere	Put_out_of_operation	B-LU
287	2	il	DET:def	il	O	O
287	3	stasera	ADV	stasera	O	O
287	4	grazie	NOM	grazia	O	O

288	1	spegni	VER:pres	spegnare|spegnere	Put_out_of_operation	B-LU
288	2	il	DET:def	il	O	O
288	3	telefono	NOM	telefono	Put_out_of_operation	B-Device
288	4	in	PRE	in	O	O
288	5	camera	NOM	camera	Put_out_of_operation	B-Place

289	1	configurazione	NOM	configurazione	Check_status	B-LU
289	2	radiouno	ADJ	radiouno	O	O
289	3	radiatore	NOM	radiatore	Check_status	I-Device

290	1	fratello	NOM	fratello	O	O
290	2	dell	NOM	dell	O	O
290	3	′	PON	′	O	O
290	4	angolo	NOM	angolo	Contacting	B-Place
290	5	cottura	NOM	cottura	Contacting	I-Place

291	1	per	PRE	per	O	O
291	2	favore	NOM	favore	O	O
291	3	lavoro	NOM	lavoro	Check_status	I-Device

292	1	verifica	VER:pres	verificare	Check_status	B-LU
292	2	solo	ADV	solo	O	O
292	3	qui	ADV	qui	O	O

293	1	spegni	VER:pres	spegnare|spegnere	Put_out_of_operation	B-LU
293	2	la	DET:def	il	O	O
293	3	luce	NOM	luce	Put_out_of_operation	B-Device
293	4	del	PRE:det	del	O	O
293	5	corridoio	NOM	corridoio	Put_out_of_operation	B-Place
293	6	vivavoce	ADJ	vivavoce	Put_out_of_operation	I-Device

294	1	della	PRE:det	del	O	O
294	2	calorifero	NOM	calorifero	Check_status	I-Device
294	3	grazie	NOM	grazia	O	O

295	1	voglio	VER:pres	volere	O	O
295	2	abbassare	VER:infi	abbassare	Decrease_value_on_a_range	B-LU
295	3	il	DET:def	il	O	O
295	4	termosifone	NOM	termosifone	Decrease_value_on_a_range	B-Device

296	1	spegni	VER:pres	spegnare|spegnere	Put_out_of_operation	B-LU
296	2	le	DET:def	il	O	O
296	3	luci	NOM	luce	Put_out_of_operation	B-Device
296	4	la	DET:def	il	O	O
296	5	porta	NOM	porta	Put_out_of_operation	B-Device

297	1	spegni	VER:pres	spegnare|spegnere	Put_out_of_operation	B-LU
297	2	le	DET:def	il	O	O
297	3	luci	NOM	luce	Put_out_of_operation	B-Device
297	4	vicino	ADJ	vicino	Put_out_of_operation	I-Device
297	5	due	ADJ	due	Put_out_of_operation	I-Device
297	6	gradi	NOM	grado	Put_out_of_operation	I-Value

298	1	regola	NOM	regola	Check_status	B-LU
298	2	temperatura	NOM	temperatura	Check_status	B-Property
298	3	a	PRE	a	O	O
298	4	venti	NOM	venti|vento	Check_status	I-Device

299	1	stereo	ADJ	stereo	O	O
299	2	soggiorno	NOM	soggiorno	Check_status	B-Place

300	1	chiudi	VER:pres	chiudere	Terminate_communication	B-LU
300	2	la	DET:def	il	O	O
300	3	sportello	NOM	sportello	O	O
300	4	dell	NOM	dell	O	O
300	5	′	PON	′	O	O

301	1	chiudi	VER:pres	chiudere	Decrease_value_on_a_range	B-LU
301	2	la	DET:def	il	O	O
301	3	luce	ADJ	luce	Decrease_value_on_a_range	B-Device
301	4	dell	NOM	dell	O	O
301	5	′	PON	′	O	O
301	6	angolo	NOM	angolo	Decrease_value_on_a_range	I-Device

302	1	spegni	VER:pres	spegnare|spegnere	Put_out_of_operation	B-LU
302	2	la	DET:def	il	O	O
302	3	luce	NOM	luce	Put_out_of_operation	B-Device
302	4	sono	VER:pres	essere|sonare	Put_out_of_operation	B-LU
302	5	accese	VER:pper	accendere	Put_out_of_operation	I-LU

303	1	spegni	VER:pres	spegnare|spegnere	Put_out_of_operation	B-LU
303	2	le	DET:def	il	O	O
303	3	vasistas	NOM	vasistas	Put_out_of_operation	B-Device
303	4	comando	NOM	comando	Put_out_of_operation	I-Device

304	1	chiudi	VER:pres	chiudere	Terminate_communication	B-LU
304	2	la	DET:def	il	O	O
304	3	temperatura	NOM	temperatura	Terminate_communication	B-Property
304	4	a	PRE	a	O	O
304	5	venti	ADJ	venti	Terminate_communication	I-Device
304	6	gradi	NOM	grado	Terminate_communication	I-Value

305	1	spegni	VER:pres	spegnare|spegnere	Put_out_of_operation	B-LU
305	2	la	DET:def	il	O	O
305	3	luce	NOM	luce	Put_out_of_operation	B-Device
305	4	fai	VER:pres	fare	O	O
305	5	partire	VER:infi	partire	Put_out_of_operation	B-LU
305	6	le	DET:def	il	O	O
305	7	luci	NOM	luce	Put_out_of_operation	I-Device

306	1	serrande	NOM	serranda	Check_status	B-LU
306	2	le	DET:def	il	O	O
306	3	luci	NOM	luce	Check_status	B-Device
306	4	della	PRE:det	del	O	O
306	5	cucina	NOM	cucina	Check_status	B-Place

307	1	spegni	VER:pres	spegnare|spegnere	Put_out_of_operation	B-LU
307	2	le	DET:def	il	O	O
307	3	luci	NOM	luce	Put_out_of_operation	I-Device
307	4	in	PRE	in	O	O
307	5	questa	PRO:demo	questo	O	O
307	6	mia	PRO:poss	mio	O	O
307	7	sorella	NOM	sorella	Put_out_of_operation	B-Addressee

308	1	piccole	ADJ	piccolo	O	O
308	2	sono	VER:pres	essere|sonare	O	O

309	1	spegni	VER:pres	spegnare|spegnere	Put_out_of_operation	B-LU
309	2	la	DET:def	il	O	O
309	3	televisione	NOM	televisione	Put_out_of_operation	B-Device

310	1	fornello	NOM	fornello	O	O

311	1	fammi	VER:impe	fare	O	O
311	2	vedere	VER:infi	vedere	O	O
311	3	uscire	VER:infi	uscire	O	O
311	4	dalla	PRE:det	dal	O	O

312	1	spegni	VER:pres	spegnare|spegnere	Put_out_of_operation	B-LU
312	2	la	DET:def	il	O	O
312	3	televisione	NOM	televisione	Put_out_of_operation	B-Device
312	4	la	DET:def	il	O	O
312	5	porta	NOM	porta	Put_out_of_operation	B-Device

313	1	chiudi	VER:pres	chiudere	Terminate_communication	B-LU
313	2	la	DET:def	il	O	O
313	3	televisione	NOM	televisione	Terminate_communication	B-Device
313	4	alzare	VER:infi	alzare	O	O

314	1	spegni	VER:pres	spegnare|spegnere	Put_out_of_operation	B-LU
314	2	la	DET:def	il	O	O
314	3	tv	NOM	tv	Put_out_of_operation	B-Device
314	4	ventilatore	ADJ	ventilatore	Put_out_of_operation	I-Device

315	1	per	PRE	per	O	O
315	2	favore	NOM	favore	O	O
315	3	phone	NOM	phone	Check_status	I-Device

316	1	spegni	VER:pres	spegnare|spegnere	Put_out_of_operation	B-LU
316	2	la	DET:def	il	O	O
316	3	luce	NOM	luce	Put_out_of_operation	B-Device
316	4	della	PRE:det	del	O	O
316	5	camera	NOM	camera	Put_out_of_operation	B-Place

317	1	spegni	VER:pres	spegnare|spegnere	Put_out_of_operation	B-LU
317	2	la	DET:def	il	O	O
317	3	porta	ADJ	porta|porto	Put_out_of_operation	B-Device
317	4	grazie	NOM	grazia	O	O

318	1	spegni	VER:pres	spegnare|spegnere	Put_out_of_operation	B-LU
318	2	la	DET:def	il	O	O
318	3	temperatura	NOM	temperatura	Put_out_of_operation	B-Property
318	4	di	PRE	di	Put_out_of_operation	B-Value
318	5	la	PRO:pers	la	O	O

319	1	chiudi	VER:pres	chiudere	Cause_to_close	B-LU
319	2	la	DET:def	il	O	O
319	3	porta	NOM	porta	Cause_to_close	B-Device

320	1	spegni	VER:pres	spegnare|spegnere	Put_out_of_operation	B-LU
320	2	la	DET:def	il	O	O
320	3	tv	NOM	tv	Put_out_of_operation	B-Device

321	1	spegni	VER:pres	spegnare|spegnere	Put_out_of_operation	B-LU
321	2	la	DET:def	il	O	O
321	3	porta	NOM	porta	Put_out_of_operation	B-Device
321	4	chiudi	VER:pres	chiudere	Put_out_of_operation	B-LU
321	5	mia	PRO:poss	mio	O	O
321	6	sorella	NOM	sorella	Put_out_of_operation	B-Addressee

322	1	spegni	VER:pres	spegnare|spegnere	Put_out_of_operation	B-LU
322	2	la	DET:def	il	O	O
322	3	guida	NOM	guida	Put_out_of_operation	B-Device

323	1	calorifero	NOM	calorifero	Check_status	B-LU
323	2	accese	ADJ	acceso	Check_status	I-Device
323	3	in	PRE	in	O	O
323	4	soggiorno	NOM	soggiorno	Check_status	B-Place

324	1	spegni	VER:pres	spegnare|spegnere	Put_out_of_operation	B-LU
324	2	le	DET:def	il	O	O
324	3	luci	NOM	luce	Put_out_of_operation	B-Device
324	4	piccole	ADJ	piccolo	Put_out_of_operation	I-Device
324	5	lasciami	VER:impe	lasciare	O	O

325	1	spegni	VER:pres	spegnare|spegnere	Put_out_of_operation	B-LU
325	2	la	DET:def	il	O	O
325	3	persiana	NOM	persiana|persiano	Put_out_of_operation	B-Device

326	1	tira	VER:pres	tirare	Cause_to_open	B-LU
326	2	ventilazione	NOM	ventilazione	Cause_to_open	B-Device

327	1	chiudi	VER:pres	chiudere	Cause_to_close	B-LU
327	2	la	DET:def	il	O	O
327	3	le	DET:def	il	O	O
327	4	luci	NOM	luce	Cause_to_close	B-Device
327	5	finestra	NOM	finestra	Cause_to_close	I-Device

328	1	chiudi	VER:pres	chiudere	Cause_to_close	B-LU
328	2	la	DET:def	il	O	O
328	3	porta	NOM	porta	Cause_to_close	B-Device

329	1	fai	VER:pres	fare	Put_into_operation	B-LU
329	2	videoregistratore	NOM	videoregistratore	Put_into_operation	B-Device
329	3	lampadina	NOM	lampadina	Put_into_operation	I-Device

330	1	il	DET:def	il	O	O
330	2	termosifone	NOM	termosifone	Check_status	B-Device

331	1	spengi	VER:pres	spengere	Check_status	B-LU
331	2	soggiorno	NOM	soggiorno	O	O
331	3	camera	NOM	camera	Check_status	B-Place

332	1	videocitofono	NOM	videocitofono	O	O

333	1	metti	VER:pres	mettere	Cause_to_open	B-LU
333	2	su	PRE	su	O	O
333	3	radiouno	NOM	radiouno	Cause_to_open	B-Value

334	1	spegni	VER:pres	spegnare|spegnere	Put_out_of_operation	B-LU
334	2	le	DET:def	il	O	O
334	3	luci	NOM	luce	Put_out_of_operation	B-Device
334	4	del	PRE:det	del	O	O
334	5	lasciami	VER:impe	lasciare	Put_out_of_operation	I-Device

335	1	registra	VER:pres	registrare	Check_status	B-LU

336	1	telecamera	NOM	telecamera	O	O

337	1	spegni	VER:pres	spegnare|spegnere	Put_out_of_operation	B-LU
337	2	il	DET:def	il	O	O
337	3	comodini	NOM	comodino	Put_out_of_operation	I-Device

338	1	si	PRO:pers	si	O	O
338	2	serrande	NOM	serranda	Check_status	B-Device
338	3	le	DET:def	il	O	O
338	4	luci	NOM	luce	Check_status	I-Device
338	5	comando	NOM	comando	Check_status	I-Device

339	1	spegni	VER:pres	spegnare|spegnere	Put_out_of_operation	B-LU
339	2	diffondi	VER:impe	diffondere	O	O

340	1	spegni	VER:pres	spegnare|spegnere	Put_out_of_operation	B-LU
340	2	pure	ADV	pure	Put_out_of_operation	B-Device
340	3	le	DET:def	il	O	O
340	4	luci	NOM	luce	Put_out_of_operation	B-Device
340	5	del	PRE:det	del	O	O
340	6	soggiorno	NOM	soggiorno	Put_out_of_operation	B-Place

341	1	spegni	VER:pres	spegnare|spegnere	Put_out_of_operation	B-LU
341	2	tutte	ADJ	tutto	Put_out_of_operation	B-Device
341	3	le	DET:def	il	O	O
341	4	tapparelle	NOM	tapparella	Put_out_of_operation	B-Device
341	5	sul	PRE:det	sul	O	O
341	6	giroscale	ADJ	giroscale	Put_out_of_operation	B-Place

342	1	spegni	VER:pres	spegnare|spegnere	Put_out_of_operation	B-LU
342	2	il	DET:def	il	O	O
342	3	radiatore	NOM	radiatore	Put_out_of_operation	I-Device

343	1	per	PRE	per	O	O
343	2	cortesia	NOM	cortesia	O	O

344	1	spegni	VER:pres	spegnare|spegnere	Put_out_of_operation	B-LU
344	2	le	DET:def	il	O	O
344	3	due	ADJ	due	Put_out_of_operation	I-Device
344	4	gradi	NOM	grado	Put_out_of_operation	I-Value

345	1	tira	VER:pres	tirare	Put_out_of_operation	B-LU
345	2	spegniti	VER:impe	spegnere	O	O
345	3	luce	ADJ	luce	Put_out_of_operation	B-Device

346	1	tira	VER:pres	tirare	Cause_to_open	B-LU
346	2	del	PRE:det	del	O	O

347	1	chiudi	VER:pres	chiudere	Cause_to_close	B-LU
347	2	del	PRE:det	del	O	O
347	3	salotto	NOM	salotto	Cause_to_close	B-Place

348	1	televisione	NOM	televisione	O	O

349	1	poggiolo	NOM	poggiolo	Check_status	B-LU
349	2	accese	ADJ	acceso	Check_status	I-Device

350	1	fammi	VER:impe	fare	O	O
350	2	vedere	VER:infi	vedere	Set_value_on_a_range	B-LU
350	3	raidue	ADJ	raidue	O	O
350	4	radiouno	NOM	radiouno	O	O

351	1	chiudi	VER:pres	chiudere	Cause_to_close	B-LU
351	2	la	DET:def	il	O	O
351	3	porta	NOM	porta	Cause_to_close	B-Device

352	1	il	DET:def	il	O	O
352	2	ventilatore	ADJ	ventilatore	Set_value_on_a_range	B-Device
352	3	comodini	NOM	comodino	Set_value_on_a_range	I-Device

353	1	giroscale	ADJ	giroscale	O	O

354	1	tira	VER:pres	tirare	Cause_to_open	B-LU
354	2	sciacquone	NOM	sciacquone	Cause_to_open	B-Device

355	1	videocitofono	NOM	videocitofono	O	O

356	1	voglio	VER:pres	volere	O	O
356	2	stanza	NOM	stanza	Put_into_operation	B-Place

357	1	vai	NOM	vaio	Set_value_on_a_range	B-LU
357	2	su	PRE	su	O	O
357	3	canalecinque	ADJ	canalecinque	Set_value_on_a_range	B-Value
357	4	decoder	NOM	decoder	Set_value_on_a_range	B-Device

358	1	la	DET:def	il	O	O
358	2	temperatura	NOM	temperatura	Check_status	B-Property
358	3	clima	NOM	clima	O	O

359	1	modifica	NOM	modifica	Check_status	B-LU
359	2	la	PRO:pers	la	O	O

360	1	radiatore	NOM	radiatore	O	O

361	1	tira	VER:pres	tirare	Cause_to_open	B-LU
361	2	la	DET:def	il	O	O
361	3	porta	NOM	porta	Cause_to_open	B-Device
361	4	del	PRE:det	del	O	O
361	5	soggiorno	NOM	soggiorno	Cause_to_open	B-Place

362	1	chiudi	VER:pres	chiudere	Terminate_communication	B-LU
362	2	la	DET:def	il	O	O
362	3	temperatura	NOM	temperatura	Terminate_communication	B-Property
362	4	le	DET:def	il	O	O
362	5	serrande	NOM	serranda	Terminate_communication	B-Device
362	6	raitre	ADJ	raitre	Terminate_communication	I-Device

363	1	vorrei	VER:cond	volere	Put_out_of_operation	B-LU
363	2	che	PRO:rela	che	O	O
363	3	spegnessi	VER:cimp	spegnere	O	O
363	4	le	DET:def	il	O	O
363	5	abatjour	NOM	abatjour	Put_out_of_operation	B-Device
363	6	finestra	NOM	finestra	Put_out_of_operation	B-Device
363	7	monitor	NOM	monitor	Put_out_of_operation	B-Device
363	8	mia	PRO:poss	mio	O	O

364	1	vorrei	VER:cond	volere	O	O
364	2	lampadina	NOM	lampadina	Check_status	B-Device
364	3	velux	ADJ	velux	Check_status	I-Device

