abbassa la televisione squillare 
chiama se termosifone 
abatjour 
abbassa il volume della cucina 
imposta allo specchio 
imposta esegui 
alza la luce della cucina del 
abbassa la luce del lavello 
abbassare sorella 
di aprire abbassa la tapparella 
tv e abbassa la temperatura 
tv e abbassa la temperatura del bagno 
abbassa il volume della radio 
abbassa la ventilazione 
abbassa serrande 
apri disbrigo aumenta 
accendi il lettore dvd 
accenderesti la luce per favore mia 
accendi il phone 
accendi il volume radio 
chiudi la temperatura 
accendi tapparella 
accendi cellulare le luci 
accetta in soggiorno 
accendi il computer piccole trenta minuti 
accendi il controllo radiouno 
accendi la condizionatore 
accendi condizionatore in camera 
imposta il decoder 
condizionatore 
accendi il lettore ingresso 
accendi il lettore dvd 
accendi monitor 
la luce della cucina 
il termosifone 
accenderesti comando 
alza il ricevitore satellite chiama 
accendi il riscaldamento 
accendi il riscaldamento solo qui 
accendi lavello 
alza il termosifone 
accendi il termostato sta 
accendi il ventilatore 
accendi il lettore bagni accedi 
accendi il decoder 
accendi il fornello 
accendi la persiana 
attiva il radiatore 
accendi la luce 
la persiana della cucina 
il sms della radio 
accendi la luce del bagno 
accendi la luce della veranda 
abbassa la luce della cucina 
imposta la luce del salotto 
accendi la luce suonare 
accendi la luce della mia sorella 
accendi il telefono grazie 
accendi la luce principale favore togli la 
accendi la musica modifica 
accendi la ventola 
accendi la porta del piano 
accendi l' aria condizionata e fammi vedere 
accendi il riscaldamento 
la finestra veranda 
spegni il sapone 
chiudi la persiana del soggiorno 
abbassa la televisione 
accendi la tv e fammi vedere la porta del accedi 
accendi la rinfresca italiauno 
accendi la tv e spegni la lampada 
accendi la ventola vista dall' 
accendi la ventola 
accendi la regola la persiana della 
della camera da letto 
accese al letto 
accendi le luci vicino al letto 
accendi ventola 
alza il riscaldamento 
accendi la stanza 
accendi la tv e 
accendi il cellulare 
acceso 
accendi salotto 
mi accenderesti phon 
accendi il del soggiorno 
accendi la tv 
cassetta dal cellulare in bagno 
potresti a venti gradi 
alza il volume 
vorrei aumentare 
climatizzatore televisione 
alza le accese in soggiorno 
alza la persiana 
chiama salotto 
ventola del la finestra letto 
alza la temperatura di due 
alza telefonino 
alza la ventola chiudi la televisione 
apri la temperatura di veranda 
alza di due ore 
alza la squillare a venti gradi 
alza il espelli la 
alza la ventola 
attiva in soggiorno 
alza persiana 
vorrei telefono 
vorrei 
apri telegiornale 
apri la soggiorno 
attiva telefono 
voglio abbassare esegui 
abbassa in soggiorno della tv e 
chiudi la porta del bagno 
sportello dell' armadio 
apri la porta del balcone in camera 
aprire la porta del del bagno 
apri la porta della camera dove si serrande 
chiudi fornello telefonino 
tira decoder la porta d' ingresso 
chiamare ingresso 
apri la porta per favore ingresso 
fai entrare radiouno 
tira l' asciugacapelli 
apri la persiana ore 
attiva della velux 
apri le tapparelle vai su 
mia sorella lo sportello dell' armadio 
chiudi la lampada radio pc 
alza la tv 
vorrei radiatore 
arieggia salotto 
chiudi la rinfresca telefono 
attiva cellulare che 
apri le luci potresti 
attiva l' armadio 
chiudi la il condizionatore 
attiva il phon 
attiva il riscaldamento stasera 
attiva in camera 
attiva il ventilatore porta qui 
attiva lo del soggiorno 
attiva satellite 
attiva la televisione 
attiva il volume della tv e 
attiva lo schermo del soggiorno 
attiva lo scarico armadio 
attiva ventilazione 
attiva del bagno 
attiva socchiudi la porta 
fai partire stato della radio 
attiva telefono 
attiva la luce tv e 
vorrei fammi vedere la porta dell' appartamento 
la dell' armadio 
chiama in soggiorno 
cambia canale 
accendi la luce 
chiudi la tapparella 
della 
chiudi la porta della camera 
attiva ventola fammi 
chiudi la finestra 
chiudi la tapparella 
telefono 
telecamera cucina qui 
chiudi la porta 
chiamata che da sul balcone 
chiudi la porta del balcone squillare il 
attiva il cottura 
chiudi la porta della cucina 
stasera esterno 
chiudi la porta della televisione 
chiudi la finestra 
chiudi la cortesia in bagno 
chiudi la porta finestra 
il ventilatore del soggiorno 
apri la temperatura telefono 
chiudi la radiatore 
chiamando 
chiudi porte 
cellulare 
di aprire del corridoio 
chiudi per favore 
fai entrare piu' luce cucina 
fai partire bagni 
fai partire ventilatore ventola spegnilo tra trenta minuti 
fratello italiauno 
apri telefonino 
fai partire condizionata a diciannove gradi da sul 
telefono 
passa dell'angolo rispondi al su 
fai suonare 
fammi vedere la sono 
tira su raiuno e la porta della piantana chiudi la 
imposta configurazione serrande 
imposta il telefono in modalita' silenziosa chiama 
imposta regolare condizionata spalanca tra due ore 
imposta la televisione gradi 
imposta telegiornale 
la finestra lampadina 
del salotto 
mantieni aperta la porta del soggiorno 
la temperatura di due la porta 
la temperatura a venti radiocapital 
mantieni temperatura a venti due gradi sala 
della veranda 
per favore chiudi telegiornale 
chiudi lasciami si 
metti su canalecinque 
solleva un grado 
metti su raitre italiauno 
metti su raiuno e alla 
metti su raiuno modifica 
metti su raiuno e abbassa il volume 
metti metti su della 
mi accenderesti la registra questo programma 
chiudi la temperatura 
passa al digitale terrestre cucina 
per cortesia spegni la luce soffusa 
chiudi la porta squillare 
per favore spegni il termoconvettore vivavoce 
per favore spegni la televisione disattiva 
le persiane vocale cugino cucina 
in camera da due gradi 
potresti e la persiana della camera 
entrambi collegati 
spegni la lampada qui 
per del salotto 
registra 
registra questo programma qui mezz' 
regola condizionatore 
nel corridoio 
regola temperatura a venti vivavoce dvd 
regola la temperatura di modalita' silenziosa 
regola temperatura a venti radiatore 
rispondi al campanello modifica la 
rispondi al cellulare 
rispondi al citofono 
rispondi al citofono 
rispondi al citofono mia 
sportello 
disbrigo 
rispondi al 
sblocca mia sorella 
sms sono impegnato stasera chiamata 
chiudi la lavoro sala 
spegneresti le luci corridoio se sono accese 
spegni la tv 
spegni il computer grazie acqua 
spegni il condizionatore 
per regola la luce 
spegni chiudi la 
spegni lumino 
spegni il controllo tv e accendi 
chiudi la dell'angolo cottura 
spegni la lampada lo stereo 
spegni il phon vivavoce 
spegni la luce del 
spegni il ricevitore la 
spegneresti le luci se sono 
spegni il riscaldamento in questa stanza 
spegni il riscaldamento solo dell'angolo cottura 
spegni dell'angolo 
spegni telefono della camera 
fammi vedere lettore dvd 
spegni il del soggiorno 
fammi vedere raiuno 
spegni le calorifero 
spegni la 
spegni la tapparella 
tira e abbassa la tv 
spegni la lampada spenga verifica 
spegni la lampada lavandino 
spegni la porta configurazione 
accendi la lampada salotto 
spegni la lampada lavandino 
spegni girare esterno 
spegni la lampada sul tavolino dell'angolo dell' appartamento 
spegni la lampada 
spegni la soffusa 
spegni la luce della solo qui 
spegni la luce lavandino 
spegni la luce del corridoio in camera 
terrestre sui comodini lavoro 
spegni le luci della cucina lavello 
spegni la luce radiouno 
spegni il allo specchio grazie 
spegni la luce per favore camera 
configurazione sta chiamando radiatore 
cala la luce del piano cottura 
fammi vedere lavoro 
telefono solo qui 
spegni la luce del telefono grazie 
della calorifero grazie 
spegni le luci lo 
spegni le luci in corridoio 
spegni le luci vicino alla 
fammi vedere la a venti 
stereo soggiorno 
dell'angolo lavello 
spegni la luce dell'angolo 
spegni la luce sono accese 
spegni la vasistas programma 
fai telefono a venti gradi 
spegni le luci fai partire le luci 
serrande le luci della giroscale 
spegni le luci vicino sala sui 
chiudi la televisione 
spegni la televisione 
chiudi la 
chiudi televisore e la lampada 
spegni la televisione aria condizionata 
spegni la televisione alzare 
spegni la tv e il radiatore 
per favore al 
spegni la luce della camera 
spegni la porta gradi 
spegni la temperatura 
metti su del lavello 
spegni la tv 
spegni la porta chiudi la tapparella 
spegni il guida 
spegni le luci accese in soggiorno 
spegni le luci piccole ingresso 
spegni la luce della camera 
spegni il volume della cucina 
vista le luci del soggiorno 
spegni il lavello 
spegni le luci in soggiorno attiva 
spegni le luci in soggiorno 
spengi soggiorno clima 
di le luci in bagno 
spegni le serrande corridoio 
spegni le luci della lasciami 
spengi salotto 
spegni le camera 
spegni comodini 
si serrande le luci in bagno 
spegni la tv 
spegni pure le luci del soggiorno 
spegni tutte le tapparelle sul giroscale 
spegni il entrata soffusa 
per cortesia 
spegni le due gradi 
tira spegniti luce 
radiatore 
audio della camera 
spegni le luci 
poggiolo accese 
temperatura a venti gradi 
chiudi la porta 
il ventilatore comodini 
il sapone 
tira sciacquone 
tira sciacquone sono 
voglio cellulare 
vai su canalecinque corridoio 
la temperatura clima 
modifica la tapparella 
tira l' acqua dello 
tira e la porta del soggiorno 
chiudi la temperatura in sala se 
vorrei che spegnessi le abatjour finestra computer cambia 
vorrei chiamare chiudi la velux 
